EukProt_ID	Name_to_Use	url	to_download	gff_url	notes	contributor
EP00006	Acanthamoeba_castellanii	ftp://ftp.ensemblgenomes.org/pub/protists/release-42/fasta/protists_amoebozoa1_collection/acanthamoeba_castellanii_str_neff/pep/Acanthamoeba_castellanii_str_neff.Acastellanii.strNEFF_v1.pep.all.fa.gz	ftp://ftp.ensemblgenomes.org/pub/protists/release-42/fasta/protists_amoebozoa1_collection/acanthamoeba_castellanii_str_neff/dna/Acanthamoeba_castellanii_str_neff.Acastellanii.strNEFF_v1.dna.toplevel.fa.gz	NA	NA	NA
EP00014	Entamoeba_dispar	ftp://ftp.ncbi.nlm.nih.gov/genomes/all/GCA/000/209/125/GCA_000209125.2_JCVI_EDISG_1.0/GCA_000209125.2_JCVI_EDISG_1.0_protein.faa.gz	ftp://ftp.ncbi.nlm.nih.gov/genomes/all/GCA/000/209/125/GCA_000209125.2_JCVI_EDISG_1.0/GCA_000209125.2_JCVI_EDISG_1.0_genomic.fna.gz	NA	NA	NA
EP00015	Entamoeba_histolytica	ftp://ftp.ncbi.nlm.nih.gov/genomes/all/GCF/000/208/925/GCF_000208925.1_JCVI_ESG2_1.0/GCF_000208925.1_JCVI_ESG2_1.0_protein.faa.gz	ftp://ftp.ncbi.nlm.nih.gov/genomes/all/GCF/000/208/925/GCF_000208925.1_JCVI_ESG2_1.0/GCF_000208925.1_JCVI_ESG2_1.0_genomic.fna.gz	NA	NA	NA
EP00016	Entamoeba_nuttalli	ftp://ftp.ncbi.nlm.nih.gov/genomes/all/GCF/000/257/125/GCF_000257125.1_ENU1_v1/GCF_000257125.1_ENU1_v1_protein.faa.gz	ftp://ftp.ncbi.nlm.nih.gov/genomes/all/GCF/000/257/125/GCF_000257125.1_ENU1_v1/GCF_000257125.1_ENU1_v1_genomic.fna.gz	NA	NA	NA
EP00017	Entamoeba_invadens	ftp://ftp.ncbi.nlm.nih.gov/genomes/all/GCF/000/330/505/GCF_000330505.1_EIA2_v2/GCF_000330505.1_EIA2_v2_protein.faa.gz	ftp://ftp.ncbi.nlm.nih.gov/genomes/all/GCF/000/330/505/GCF_000330505.1_EIA2_v2/GCF_000330505.1_EIA2_v2_genomic.fna.gz	NA	NA	NA
EP00021	Heterostelium_album	ftp://ftp.ncbi.nlm.nih.gov/genomes/all/GCF/000/004/825/GCF_000004825.1_PolPal_Dec2009/GCF_000004825.1_PolPal_Dec2009_protein.faa.gz	ftp://ftp.ncbi.nlm.nih.gov/genomes/all/GCF/000/004/825/GCF_000004825.1_PolPal_Dec2009/GCF_000004825.1_PolPal_Dec2009_genomic.fna.gz	NA	NA	NA
EP00022	Cavenderia_fasciculata	ftp://ftp.ncbi.nlm.nih.gov/genomes/all/GCF/000/203/815/GCF_000203815.1_DFas_2.0/GCF_000203815.1_DFas_2.0_protein.faa.gz	ftp://ftp.ncbi.nlm.nih.gov/genomes/all/GCF/000/203/815/GCF_000203815.1_DFas_2.0/GCF_000203815.1_DFas_2.0_genomic.fna.gz	NA	NA	NA
EP00023	Dictyostelium_discoideum	ftp://ftp.ncbi.nlm.nih.gov/genomes/all/GCF/000/004/695/GCF_000004695.1_dicty_2.7/GCF_000004695.1_dicty_2.7_protein.faa.gz	ftp://ftp.ncbi.nlm.nih.gov/genomes/all/GCF/000/004/695/GCF_000004695.1_dicty_2.7/GCF_000004695.1_dicty_2.7_genomic.fna.gz	NA	NA	NA
EP00024	Dictyostelium_purpureum	ftp://ftp.ncbi.nlm.nih.gov/genomes/all/GCF/000/190/715/GCF_000190715.1_v1.0/GCF_000190715.1_v1.0_protein.faa.gz	ftp://ftp.ncbi.nlm.nih.gov/genomes/all/GCF/000/190/715/GCF_000190715.1_v1.0/GCF_000190715.1_v1.0_genomic.fna.gz	NA	NA	NA
EP00025	Tieghemostelium_lacteum	ftp://ftp.ncbi.nlm.nih.gov/genomes/all/GCA/001/606/155/GCA_001606155.1_ASM160615v1/GCA_001606155.1_ASM160615v1_protein.faa.gz	ftp://ftp.ncbi.nlm.nih.gov/genomes/all/GCA/001/606/155/GCA_001606155.1_ASM160615v1/GCA_001606155.1_ASM160615v1_genomic.fna.gz	NA	NA	NA
EP00031	Thecamonas_trahens	ftp://ftp.ncbi.nlm.nih.gov/genomes/all/GCF/000/142/905/GCF_000142905.1_TheTra_May2010/GCF_000142905.1_TheTra_May2010_protein.faa.gz	ftp://ftp.ncbi.nlm.nih.gov/genomes/all/GCF/000/142/905/GCF_000142905.1_TheTra_May2010/GCF_000142905.1_TheTra_May2010_genomic.fna.gz	NA	NA	NA
EP00044	Salpingoeca_rosetta	ftp://ftp.ncbi.nlm.nih.gov/genomes/all/GCF/000/188/695/GCF_000188695.1_Proterospongia_sp_ATCC50818/GCF_000188695.1_Proterospongia_sp_ATCC50818_protein.faa.gz	ftp://ftp.ncbi.nlm.nih.gov/genomes/all/GCF/000/188/695/GCF_000188695.1_Proterospongia_sp_ATCC50818/GCF_000188695.1_Proterospongia_sp_ATCC50818_genomic.fna.gz	NA	NA	NA
EP00046	Monosiga_brevicollis	ftp://ftp.ncbi.nlm.nih.gov/genomes/all/GCF/000/002/865/GCF_000002865.3_V1.0/GCF_000002865.3_V1.0_protein.faa.gz	ftp://ftp.ncbi.nlm.nih.gov/genomes/all/GCF/000/002/865/GCF_000002865.3_V1.0/GCF_000002865.3_V1.0_genomic.fna.gz	NA	NA	NA
EP00057	Strongylocentrotus_purpuratus	ftp://ftp.ncbi.nlm.nih.gov/genomes/all/GCF/000/002/235/GCF_000002235.4_Spur_4.2/GCF_000002235.4_Spur_4.2_protein.faa.gz	ftp://ftp.ncbi.nlm.nih.gov/genomes/all/GCF/000/002/235/GCF_000002235.4_Spur_4.2/GCF_000002235.4_Spur_4.2_genomic.fna.gz	NA	NA	NA
EP00058	Branchiostoma_floridae	ftp://ftp.ncbi.nlm.nih.gov/genomes/all/GCF/000/003/815/GCF_000003815.1_Version_2/GCF_000003815.1_Version_2_protein.faa.gz	ftp://ftp.ncbi.nlm.nih.gov/genomes/all/GCF/000/003/815/GCF_000003815.1_Version_2/GCF_000003815.1_Version_2_genomic.fna.gz	NA	NA	NA
EP00059	Ciona_intestinalis	ftp://ftp.ncbi.nlm.nih.gov/genomes/all/GCF/000/224/145/GCF_000224145.3_KH/GCF_000224145.3_KH_protein.faa.gz	ftp://ftp.ncbi.nlm.nih.gov/genomes/all/GCF/000/224/145/GCF_000224145.3_KH/GCF_000224145.3_KH_genomic.fna.gz	NA	NA	NA
EP00060	Petromyzon_marinus	ftp://ftp.ensembl.org/pub/release-95/fasta/petromyzon_marinus/pep/	ftp://ftp.ensembl.org/pub/release-95/fasta/petromyzon_marinus/dna/	NA	NA	NA
EP00061	Rhincodon_typus	https://figshare.com/articles/LVEK00000000_predicted-genes_faa/3987093	NA	NA	NA	S
EP00062	Callorhinchus_milii	ftp://ftp.ncbi.nlm.nih.gov/genomes/all/GCF/000/165/045/GCF_000165045.1_Callorhinchus_milii-6.1.3/GCF_000165045.1_Callorhinchus_milii-6.1.3_protein.faa.gz	ftp://ftp.ncbi.nlm.nih.gov/genomes/all/GCF/000/165/045/GCF_000165045.1_Callorhinchus_milii-6.1.3/GCF_000165045.1_Callorhinchus_milii-6.1.3_genomic.fna.gz	NA	NA	NA
EP00063	Salmo_salar	ftp://ftp.ncbi.nlm.nih.gov/genomes/all/GCF/000/233/375/GCF_000233375.1_ICSASG_v2/GCF_000233375.1_ICSASG_v2_protein.faa.gz	ftp://ftp.ncbi.nlm.nih.gov/genomes/all/GCF/000/233/375/GCF_000233375.1_ICSASG_v2/GCF_000233375.1_ICSASG_v2_genomic.fna.gz	NA	NA	NA
EP00064	Thunnus_orientalis	http://nrifs.fra.affrc.go.jp/cgi-bin/lime_download/lime.cgi?tuna_Proteins	NA	NA	NA	G
EP00065	Mola_mola	ftp://ftp.ensembl.org/pub/release-96/fasta/mola_mola/pep/Mola_mola.ASM169857v1.pep.all.fa.gz	ftp://ftp.ensembl.org/pub/release-96/fasta/mola_mola/dna/Mola_mola.ASM169857v1.dna.toplevel.fa.gz	NA	NA	NA
EP00066	Takifugu_rubripes	ftp://ftp.ncbi.nlm.nih.gov/genomes/all/GCF/000/180/615/GCF_000180615.1_FUGU5/GCF_000180615.1_FUGU5_protein.faa.gz	ftp://ftp.ncbi.nlm.nih.gov/genomes/all/GCF/000/180/615/GCF_000180615.1_FUGU5/GCF_000180615.1_FUGU5_genomic.fna.gz	NA	NA	NA
EP00067	Danio_rerio	ftp://ftp.ncbi.nlm.nih.gov/genomes/all/GCF/000/002/035/GCF_000002035.6_GRCz11/GCF_000002035.6_GRCz11_protein.faa.gz	ftp://ftp.ncbi.nlm.nih.gov/genomes/all/GCF/000/002/035/GCF_000002035.6_GRCz11/GCF_000002035.6_GRCz11_genomic.fna.gz	NA	NA	NA
EP00068	Latimeria_chalumnae	ftp://ftp.ncbi.nlm.nih.gov/genomes/all/GCF/000/225/785/GCF_000225785.1_LatCha1/GCF_000225785.1_LatCha1_protein.faa.gz	ftp://ftp.ncbi.nlm.nih.gov/genomes/all/GCF/000/225/785/GCF_000225785.1_LatCha1/GCF_000225785.1_LatCha1_genomic.fna.gz	NA	NA	NA
EP00069	Balaena_mysticetus	http://alfred.liv.ac.uk/downloads/bowhead_whale/bowhead_whale_proteins.zip	NA	NA	NA	M
EP00070	Physeter_catodon	ftp://ftp.ncbi.nlm.nih.gov/genomes/all/GCF/002/837/175/GCF_002837175.2_ASM283717v2/GCF_002837175.2_ASM283717v2_protein.faa.gz	ftp://ftp.ncbi.nlm.nih.gov/genomes/all/GCF/002/837/175/GCF_002837175.2_ASM283717v2/GCF_002837175.2_ASM283717v2_genomic.fna.gz	NA	NA	NA
EP00071	Canis_lupus	ftp://ftp.ncbi.nlm.nih.gov/genomes/all/GCF/000/002/285/GCF_000002285.3_CanFam3.1/GCF_000002285.3_CanFam3.1_protein.faa.gz	ftp://ftp.ncbi.nlm.nih.gov/genomes/all/GCF/000/002/285/GCF_000002285.3_CanFam3.1/GCF_000002285.3_CanFam3.1_genomic.fna.gz	NA	NA	NA
EP00072	Mus_musculus	ftp://ftp.ncbi.nlm.nih.gov/genomes/all/GCF/000/001/635/GCF_000001635.26_GRCm38.p6/GCF_000001635.26_GRCm38.p6_protein.faa.gz	ftp://ftp.ncbi.nlm.nih.gov/genomes/all/GCF/000/001/635/GCF_000001635.26_GRCm38.p6/GCF_000001635.26_GRCm38.p6_genomic.fna.gz	NA	NA	NA
EP00073	Rattus_norvegicus	ftp://ftp.ncbi.nlm.nih.gov/genomes/all/GCF/000/001/895/GCF_000001895.5_Rnor_6.0/GCF_000001895.5_Rnor_6.0_protein.faa.gz	ftp://ftp.ncbi.nlm.nih.gov/genomes/all/GCF/000/001/895/GCF_000001895.5_Rnor_6.0/GCF_000001895.5_Rnor_6.0_genomic.fna.gz	NA	NA	NA
EP00074	Homo_sapiens	ftp://ftp.ncbi.nlm.nih.gov/genomes/all/GCF/000/001/405/GCF_000001405.38_GRCh38.p12/GCF_000001405.38_GRCh38.p12_protein.faa.gz	ftp://ftp.ncbi.nlm.nih.gov/genomes/all/GCF/000/001/405/GCF_000001405.38_GRCh38.p12/GCF_000001405.38_GRCh38.p12_genomic.fna.gz	NA	NA	NA
EP00075	Anas_platyrhynchos	ftp://ftp.ncbi.nlm.nih.gov/genomes/all/GCF/003/850/225/GCF_003850225.1_IASCAAS_PekingDuck_PBH1.5/GCF_003850225.1_IASCAAS_PekingDuck_PBH1.5_protein.faa.gz	ftp://ftp.ncbi.nlm.nih.gov/genomes/all/GCF/003/850/225/GCF_003850225.1_IASCAAS_PekingDuck_PBH1.5/GCF_003850225.1_IASCAAS_PekingDuck_PBH1.5_genomic.fna.gz	NA	NA	NA
EP00076	Gallus_gallus	ftp://ftp.ncbi.nlm.nih.gov/genomes/all/GCF/000/002/315/GCF_000002315.6_GRCg6a/GCF_000002315.6_GRCg6a_protein.faa.gz	ftp://ftp.ncbi.nlm.nih.gov/genomes/all/GCF/000/002/315/GCF_000002315.6_GRCg6a/GCF_000002315.6_GRCg6a_genomic.fna.gz	NA	NA	NA
EP00077	Pelodiscus_sinensis	ftp://ftp.ncbi.nlm.nih.gov/genomes/all/GCF/000/230/535/GCF_000230535.1_PelSin_1.0/GCF_000230535.1_PelSin_1.0_protein.faa.gz	ftp://ftp.ncbi.nlm.nih.gov/genomes/all/GCF/000/230/535/GCF_000230535.1_PelSin_1.0/GCF_000230535.1_PelSin_1.0_genomic.fna.gz	NA	NA	NA
EP00078	Anolis_carolinensis	ftp://ftp.ncbi.nlm.nih.gov/genomes/all/GCF/000/090/745/GCF_000090745.1_AnoCar2.0/GCF_000090745.1_AnoCar2.0_protein.faa.gz	ftp://ftp.ncbi.nlm.nih.gov/genomes/all/GCF/000/090/745/GCF_000090745.1_AnoCar2.0/GCF_000090745.1_AnoCar2.0_genomic.fna.gz	NA	NA	NA
EP00079	Xenopus_tropicalis	ftp://ftp.ncbi.nlm.nih.gov/genomes/all/GCF/000/004/195/GCF_000004195.3_Xenopus_tropicalis_v9.1/GCF_000004195.3_Xenopus_tropicalis_v9.1_protein.faa.gz	ftp://ftp.ncbi.nlm.nih.gov/genomes/all/GCF/000/004/195/GCF_000004195.3_Xenopus_tropicalis_v9.1/GCF_000004195.3_Xenopus_tropicalis_v9.1_genomic.fna.gz	NA	NA	NA
EP00080	Pristionchus_pacificus	ftp://ftp.ncbi.nlm.nih.gov/genomes/all/GCA/000/180/635/GCA_000180635.3_El_Paco/GCA_000180635.3_El_Paco_protein.faa.gz	ftp://ftp.ncbi.nlm.nih.gov/genomes/all/GCA/000/180/635/GCA_000180635.3_El_Paco/GCA_000180635.3_El_Paco_genomic.fna.gz	NA	NA	NA
EP00081	Caenorhabditis_elegans	ftp://ftp.ncbi.nlm.nih.gov/genomes/all/GCF/000/002/985/GCF_000002985.6_WBcel235/GCF_000002985.6_WBcel235_protein.faa.gz	ftp://ftp.ncbi.nlm.nih.gov/genomes/all/GCF/000/002/985/GCF_000002985.6_WBcel235/GCF_000002985.6_WBcel235_genomic.fna.gz	NA	NA	NA
EP00082	Ixodes_scapularis	ftp://ftp.ncbi.nlm.nih.gov/genomes/all/GCF/000/208/615/GCF_000208615.1_JCVI_ISG_i3_1.0/GCF_000208615.1_JCVI_ISG_i3_1.0_protein.faa.gz	ftp://ftp.ncbi.nlm.nih.gov/genomes/all/GCF/000/208/615/GCF_000208615.1_JCVI_ISG_i3_1.0/GCF_000208615.1_JCVI_ISG_i3_1.0_genomic.fna.gz	NA	NA	NA
EP00083	Stegodyphus_mimosarum	ftp://ftp.ncbi.nlm.nih.gov/genomes/all/GCA/000/611/955/GCA_000611955.2_Stegodyphus_mimosarum_v1/GCA_000611955.2_Stegodyphus_mimosarum_v1_protein.faa.gz	ftp://ftp.ncbi.nlm.nih.gov/genomes/all/GCA/000/611/955/GCA_000611955.2_Stegodyphus_mimosarum_v1/GCA_000611955.2_Stegodyphus_mimosarum_v1_genomic.fna.gz	NA	NA	NA
EP00084	Strigamia_maritima	ftp://ftp.ensemblgenomes.org/pub/metazoa/release-42/fasta/strigamia_maritima/pep/Strigamia_maritima.Smar1.pep.all.fa.gz	ftp://ftp.ensemblgenomes.org/pub/metazoa/release-42/fasta/strigamia_maritima/dna/Strigamia_maritima.Smar1.dna.toplevel.fa.gz	NA	NA	NA
EP00085	Daphnia_pulex	ftp://ftp.ncbi.nlm.nih.gov/genomes/all/GCA/000/187/875/GCA_000187875.1_V1.0/GCA_000187875.1_V1.0_protein.faa.gz	ftp://ftp.ncbi.nlm.nih.gov/genomes/all/GCA/000/187/875/GCA_000187875.1_V1.0/GCA_000187875.1_V1.0_genomic.fna.gz	NA	NA	NA
EP00087	Eurytemora_affinis	ftp://ftp.ncbi.nlm.nih.gov/genomes/all/GCF/000/591/075/GCF_000591075.1_Eaff_2.0/GCF_000591075.1_Eaff_2.0_protein.faa.gz	ftp://ftp.ncbi.nlm.nih.gov/genomes/all/GCF/000/591/075/GCF_000591075.1_Eaff_2.0/GCF_000591075.1_Eaff_2.0_genomic.fna.gz	NA	NA	NA
EP00093	Oithona_nana	ftp://ftp.sra.ebi.ac.uk/vol1/ERZ376/ERZ376924/O_nana.PRJEB18938.annot.embl.gz	NA	NA	NA	S
EP00094	Tigriopus_californicus	https://i5k.nal.usda.gov/data/Arthropoda/tigcal-%28Tigriopus_californicus%29/Current%20Genome%20Assembly/2.Official%20or%20Primary%20Gene%20Set/TCALIF_v1.0/TCALIF_proteins_v1.0.fasta	NA	NA	NA	G
EP00095	Tigriopus_kingsejongensis	https://licebase.org/sites/default/files/tking-annotated-proteome-withgeneid.fasta.zip	NA	NA	NA	G
EP00097	Lepeophtheirus_salmonis	ftp://ftp.ensemblgenomes.org/pub/metazoa/release-40/fasta/lepeophtheirus_salmonis/pep/Lepeophtheirus_salmonis.LSalAtl2s.pep.all.fa.gz	ftp://ftp.ensemblgenomes.org/pub/metazoa/release-40/fasta/lepeophtheirus_salmonis/dna/Lepeophtheirus_salmonis.LSalAtl2s.dna.toplevel.fa.gz	NA	NA	NA
EP00098	Tribolium_castaneum	ftp://ftp.ncbi.nlm.nih.gov/genomes/all/GCF/000/002/335/GCF_000002335.3_Tcas5.2/GCF_000002335.3_Tcas5.2_protein.faa.gz	ftp://ftp.ncbi.nlm.nih.gov/genomes/all/GCF/000/002/335/GCF_000002335.3_Tcas5.2/GCF_000002335.3_Tcas5.2_genomic.fna.gz	NA	NA	NA
EP00099	Drosophila_melanogaster	ftp://ftp.ncbi.nlm.nih.gov/genomes/all/GCF/000/001/215/GCF_000001215.4_Release_6_plus_ISO1_MT/GCF_000001215.4_Release_6_plus_ISO1_MT_protein.faa.gz	ftp://ftp.ncbi.nlm.nih.gov/genomes/all/GCF/000/001/215/GCF_000001215.4_Release_6_plus_ISO1_MT/GCF_000001215.4_Release_6_plus_ISO1_MT_genomic.fna.gz	NA	NA	NA
EP00100	Culex_quinquefasciatus	ftp://ftp.ncbi.nlm.nih.gov/genomes/all/GCF/000/209/185/GCF_000209185.1_CulPip1.0/GCF_000209185.1_CulPip1.0_protein.faa.gz	ftp://ftp.ncbi.nlm.nih.gov/genomes/all/GCF/000/209/185/GCF_000209185.1_CulPip1.0/GCF_000209185.1_CulPip1.0_genomic.fna.gz	NA	NA	NA
EP00101	Apis_mellifera	ftp://ftp.ncbi.nlm.nih.gov/genomes/all/GCF/003/254/395/GCF_003254395.2_Amel_HAv3.1/GCF_003254395.2_Amel_HAv3.1_protein.faa.gz	ftp://ftp.ncbi.nlm.nih.gov/genomes/all/GCF/003/254/395/GCF_003254395.2_Amel_HAv3.1/GCF_003254395.2_Amel_HAv3.1_genomic.fna.gz	NA	NA	NA
EP00102	Acyrthosiphon_pisum	ftp://ftp.ncbi.nlm.nih.gov/genomes/all/GCF/000/142/985/GCF_000142985.2_Acyr_2.0/GCF_000142985.2_Acyr_2.0_protein.faa.gz	ftp://ftp.ncbi.nlm.nih.gov/genomes/all/GCF/000/142/985/GCF_000142985.2_Acyr_2.0/GCF_000142985.2_Acyr_2.0_genomic.fna.gz	NA	NA	NA
EP00103	Capitella_teleta	ftp://ftp.ncbi.nlm.nih.gov/genomes/all/GCA/000/328/365/GCA_000328365.1_Capca1/GCA_000328365.1_Capca1_protein.faa.gz	ftp://ftp.ncbi.nlm.nih.gov/genomes/all/GCA/000/328/365/GCA_000328365.1_Capca1/GCA_000328365.1_Capca1_genomic.fna.gz	NA	NA	NA
EP00104	Lingula_anatina	ftp://ftp.ncbi.nlm.nih.gov/genomes/all/GCF/001/039/355/GCF_001039355.2_LinAna2.0/GCF_001039355.2_LinAna2.0_protein.faa.gz	ftp://ftp.ncbi.nlm.nih.gov/genomes/all/GCF/001/039/355/GCF_001039355.2_LinAna2.0/GCF_001039355.2_LinAna2.0_genomic.fna.gz	NA	NA	NA
EP00105	Crassostrea_gigas	ftp://ftp.ncbi.nlm.nih.gov/genomes/all/GCF/000/297/895/GCF_000297895.1_oyster_v9/GCF_000297895.1_oyster_v9_protein.faa.gz	ftp://ftp.ncbi.nlm.nih.gov/genomes/all/GCF/000/297/895/GCF_000297895.1_oyster_v9/GCF_000297895.1_oyster_v9_genomic.fna.gz	NA	NA	NA
EP00106	Octopus_bimaculoides	ftp://ftp.ncbi.nlm.nih.gov/genomes/all/GCF/001/194/135/GCF_001194135.1_Octopus_bimaculoides_v2_0/GCF_001194135.1_Octopus_bimaculoides_v2_0_protein.faa.gz	ftp://ftp.ncbi.nlm.nih.gov/genomes/all/GCF/001/194/135/GCF_001194135.1_Octopus_bimaculoides_v2_0/GCF_001194135.1_Octopus_bimaculoides_v2_0_genomic.fna.gz	NA	NA	NA
EP00107	Lottia_gigantea	ftp://ftp.ensemblgenomes.org/pub/metazoa/release-42/fasta/lottia_gigantea/pep/Lottia_gigantea.Lotgi1.pep.all.fa.gz	ftp://ftp.ensemblgenomes.org/pub/metazoa/release-42/fasta/lottia_gigantea/dna/Lottia_gigantea.Lotgi1.dna.toplevel.fa.gz	NA	NA	NA
EP00108	Taenia_solium	ftp://ftp.ebi.ac.uk/pub/databases/wormbase/parasite/releases/WBPS12/species/taenia_solium/PRJNA170813/taenia_solium.PRJNA170813.WBPS12.protein.fa.gz	NA	NA	NA	G
EP00109	Schistosoma_mansoni	ftp://ftp.ncbi.nlm.nih.gov/genomes/all/GCF/000/237/925/GCF_000237925.1_ASM23792v2/GCF_000237925.1_ASM23792v2_protein.faa.gz	ftp://ftp.ncbi.nlm.nih.gov/genomes/all/GCF/000/237/925/GCF_000237925.1_ASM23792v2/GCF_000237925.1_ASM23792v2_genomic.fna.gz	NA	NA	NA
EP00110	Nematostella_vectensis	ftp://ftp.ncbi.nlm.nih.gov/genomes/all/GCF/000/209/225/GCF_000209225.1_ASM20922v1/GCF_000209225.1_ASM20922v1_protein.faa.gz	ftp://ftp.ncbi.nlm.nih.gov/genomes/all/GCF/000/209/225/GCF_000209225.1_ASM20922v1/GCF_000209225.1_ASM20922v1_genomic.fna.gz	NA	NA	NA
EP00111	Clytia_hemisphaerica	http://marimba.obs-vlfr.fr/node/237573	NA	NA	NA	G
EP00112	Aurelia_sp_Birch-Aquarium-sp1	http://www.davidadlergold.com/jellyfish	NA	NA	NA	M
EP00113	Trichoplax_adhaerens	ftp://ftp.ncbi.nlm.nih.gov/genomes/all/GCF/000/150/275/GCF_000150275.1_v1.0/GCF_000150275.1_v1.0_protein.faa.gz	ftp://ftp.ncbi.nlm.nih.gov/genomes/all/GCF/000/150/275/GCF_000150275.1_v1.0/GCF_000150275.1_v1.0_genomic.fna.gz	NA	NA	NA
EP00114	Trichoplax_sp_H2	ftp://ftp.ncbi.nlm.nih.gov/genomes/all/GCA/003/344/405/GCA_003344405.1_TrispH2_1.0/GCA_003344405.1_TrispH2_1.0_protein.faa.gz	ftp://ftp.ncbi.nlm.nih.gov/genomes/all/GCA/003/344/405/GCA_003344405.1_TrispH2_1.0/GCA_003344405.1_TrispH2_1.0_genomic.fna.gz	NA	NA	NA
EP00115	Mnemiopsis_leidyi	ftp://ftp.ensemblgenomes.org/pub/metazoa/release-42/fasta/mnemiopsis_leidyi/pep/Mnemiopsis_leidyi.MneLei_Aug2011.pep.all.fa.gz	ftp://ftp.ensemblgenomes.org/pub/metazoa/release-42/fasta/mnemiopsis_leidyi/dna/Mnemiopsis_leidyi.MneLei_Aug2011.dna.toplevel.fa.gz	NA	NA	NA
EP00116	Pleurobrachia_bachei	https://neurobase.rc.ufl.edu/pleurobrachia/downloadFasta?id=38	NA	NA	NA	G
EP00117	Sycon_ciliatum	http://www.compagen.org/datasets/SCIL_T-PEP_130802.zip	NA	NA	NA	M
EP00119	Amphimedon_queenslandica	ftp://ftp.ncbi.nlm.nih.gov/genomes/all/GCF/000/090/795/GCF_000090795.1_v1.0/GCF_000090795.1_v1.0_protein.faa.gz	ftp://ftp.ncbi.nlm.nih.gov/genomes/all/GCF/000/090/795/GCF_000090795.1_v1.0/GCF_000090795.1_v1.0_genomic.fna.gz	NA	NA	NA
EP00120	Capsaspora_owczarzaki	ftp://ftp.ncbi.nlm.nih.gov/genomes/all/GCF/000/151/315/GCF_000151315.2_C_owczarzaki_V2/GCF_000151315.2_C_owczarzaki_V2_protein.faa.gz	ftp://ftp.ncbi.nlm.nih.gov/genomes/all/GCF/000/151/315/GCF_000151315.2_C_owczarzaki_V2/GCF_000151315.2_C_owczarzaki_V2_genomic.fna.gz	NA	NA	NA
EP00121	Abeoforma_whisleri	https://figshare.com/articles/Genome_-_Abeoforma_whisleri_/5426458	NA	NA	NA	G
EP00122	Pirum_gemmata	https://figshare.com/articles/Genome_-_Pirum_gemmata/5426506	NA	NA	NA	G
EP00124	Ichthyophonus_hoferi	https://figshare.com/articles/Genome_-_Ichthyophonus_hoferi/5426488	NA	NA	NA	G
EP00125	Sphaeroforma_arctica	ftp://ftp.ncbi.nlm.nih.gov/genomes/all/GCF/001/186/125/GCF_001186125.1_Spha_arctica_JP610_V1/GCF_001186125.1_Spha_arctica_JP610_V1_protein.faa.gz	ftp://ftp.ncbi.nlm.nih.gov/genomes/all/GCF/001/186/125/GCF_001186125.1_Spha_arctica_JP610_V1/GCF_001186125.1_Spha_arctica_JP610_V1_genomic.fna.gz	NA	NA	NA
EP00127	Corallochytrium_limacisporum	https://figshare.com/articles/Genome_-_Corallochytrium_limacisporum/5426470	NA	NA	NA	M
EP00129	Allomyces_macrogynus	ftp://ftp.ncbi.nlm.nih.gov/genomes/all/GCA/000/151/295/GCA_000151295.1_A_macrogynus_V3/GCA_000151295.1_A_macrogynus_V3_protein.faa.gz	ftp://ftp.ncbi.nlm.nih.gov/genomes/all/GCA/000/151/295/GCA_000151295.1_A_macrogynus_V3/GCA_000151295.1_A_macrogynus_V3_genomic.fna.gz	NA	NA	NA
EP00130	Batrachochytrium_dendrobatidis	ftp://ftp.ncbi.nlm.nih.gov/genomes/all/GCF/000/203/795/GCF_000203795.1_v1.0/GCF_000203795.1_v1.0_protein.faa.gz	ftp://ftp.ncbi.nlm.nih.gov/genomes/all/GCF/000/203/795/GCF_000203795.1_v1.0/GCF_000203795.1_v1.0_genomic.fna.gz	NA	NA	NA
EP00131	Spizellomyces_punctatus	ftp://ftp.ncbi.nlm.nih.gov/genomes/all/GCF/000/182/565/GCF_000182565.1_S_punctatus_V1/GCF_000182565.1_S_punctatus_V1_protein.faa.gz	ftp://ftp.ncbi.nlm.nih.gov/genomes/all/GCF/000/182/565/GCF_000182565.1_S_punctatus_V1/GCF_000182565.1_S_punctatus_V1_genomic.fna.gz	NA	NA	NA
EP00132	Gonapodya_prolifera	ftp://ftp.ncbi.nlm.nih.gov/genomes/all/GCA/001/574/975/GCA_001574975.1_Ganpr1/GCA_001574975.1_Ganpr1_protein.faa.gz	ftp://ftp.ncbi.nlm.nih.gov/genomes/all/GCA/001/574/975/GCA_001574975.1_Ganpr1/GCA_001574975.1_Ganpr1_genomic.fna.gz	NA	NA	NA
EP00133	Fusarium_graminearum	ftp://ftp.ncbi.nlm.nih.gov/genomes/all/GCF/000/240/135/GCF_000240135.3_ASM24013v3/GCF_000240135.3_ASM24013v3_protein.faa.gz	ftp://ftp.ncbi.nlm.nih.gov/genomes/all/GCF/000/240/135/GCF_000240135.3_ASM24013v3/GCF_000240135.3_ASM24013v3_genomic.fna.gz	NA	NA	NA
EP00134	Neurospora_crassa	ftp://ftp.ncbi.nlm.nih.gov/genomes/all/GCF/000/182/925/GCF_000182925.2_NC12/GCF_000182925.2_NC12_protein.faa.gz	ftp://ftp.ncbi.nlm.nih.gov/genomes/all/GCF/000/182/925/GCF_000182925.2_NC12/GCF_000182925.2_NC12_genomic.fna.gz	NA	NA	NA
EP00135	Aspergillus_nidulans	ftp://ftp.ncbi.nlm.nih.gov/genomes/all/GCF/000/149/205/GCF_000149205.2_ASM14920v2/GCF_000149205.2_ASM14920v2_protein.faa.gz	ftp://ftp.ncbi.nlm.nih.gov/genomes/all/GCF/000/149/205/GCF_000149205.2_ASM14920v2/GCF_000149205.2_ASM14920v2_genomic.fna.gz	NA	NA	NA
EP00136	Aspergillus_niger	ftp://ftp.ncbi.nlm.nih.gov/genomes/all/GCF/000/002/855/GCF_000002855.3_ASM285v2/GCF_000002855.3_ASM285v2_protein.faa.gz	ftp://ftp.ncbi.nlm.nih.gov/genomes/all/GCF/000/002/855/GCF_000002855.3_ASM285v2/GCF_000002855.3_ASM285v2_genomic.fna.gz	NA	NA	NA
EP00137	Aspergillus_oryzae	ftp://ftp.ncbi.nlm.nih.gov/genomes/all/GCA/000/269/785/GCA_000269785.2_AspOry3042/GCA_000269785.2_AspOry3042_protein.faa.gz	ftp://ftp.ncbi.nlm.nih.gov/genomes/all/GCA/000/269/785/GCA_000269785.2_AspOry3042/GCA_000269785.2_AspOry3042_genomic.fna.gz	NA	NA	NA
EP00138	Coccidioides_posadasii	ftp://ftp.ncbi.nlm.nih.gov/genomes/all/GCF/000/151/335/GCF_000151335.2_JCVI-cpa1-1.0/GCF_000151335.2_JCVI-cpa1-1.0_protein.faa.gz	ftp://ftp.ncbi.nlm.nih.gov/genomes/all/GCF/000/151/335/GCF_000151335.2_JCVI-cpa1-1.0/GCF_000151335.2_JCVI-cpa1-1.0_genomic.fna.gz	NA	NA	NA
EP00139	Candida_albicans	ftp://ftp.ncbi.nlm.nih.gov/genomes/all/GCF/000/182/965/GCF_000182965.3_ASM18296v3/GCF_000182965.3_ASM18296v3_protein.faa.gz	ftp://ftp.ncbi.nlm.nih.gov/genomes/all/GCF/000/182/965/GCF_000182965.3_ASM18296v3/GCF_000182965.3_ASM18296v3_genomic.fna.gz	NA	NA	NA
EP00140	Debaryomyces_hansenii	ftp://ftp.ncbi.nlm.nih.gov/genomes/all/GCF/000/006/445/GCF_000006445.2_ASM644v2/GCF_000006445.2_ASM644v2_protein.faa.gz	ftp://ftp.ncbi.nlm.nih.gov/genomes/all/GCF/000/006/445/GCF_000006445.2_ASM644v2/GCF_000006445.2_ASM644v2_genomic.fna.gz	NA	NA	NA
EP00141	Yarrowia_lipolytica	ftp://ftp.ncbi.nlm.nih.gov/genomes/all/GCF/000/002/525/GCF_000002525.2_ASM252v1/GCF_000002525.2_ASM252v1_protein.faa.gz	ftp://ftp.ncbi.nlm.nih.gov/genomes/all/GCF/000/002/525/GCF_000002525.2_ASM252v1/GCF_000002525.2_ASM252v1_genomic.fna.gz	NA	NA	NA
EP00142	Kluyveromyces_lactis	ftp://ftp.ncbi.nlm.nih.gov/genomes/all/GCF/000/002/515/GCF_000002515.2_ASM251v1/GCF_000002515.2_ASM251v1_protein.faa.gz	ftp://ftp.ncbi.nlm.nih.gov/genomes/all/GCF/000/002/515/GCF_000002515.2_ASM251v1/GCF_000002515.2_ASM251v1_genomic.fna.gz	NA	NA	NA
EP00143	Candida_glabrata	ftp://ftp.ncbi.nlm.nih.gov/genomes/all/GCF/000/002/545/GCF_000002545.3_ASM254v2/GCF_000002545.3_ASM254v2_protein.faa.gz	ftp://ftp.ncbi.nlm.nih.gov/genomes/all/GCF/000/002/545/GCF_000002545.3_ASM254v2/GCF_000002545.3_ASM254v2_genomic.fna.gz	NA	NA	NA
EP00144	Saccharomyces_cerevisiae	ftp://ftp.ncbi.nlm.nih.gov/genomes/all/GCF/000/146/045/GCF_000146045.2_R64/GCF_000146045.2_R64_protein.faa.gz	ftp://ftp.ncbi.nlm.nih.gov/genomes/all/GCF/000/146/045/GCF_000146045.2_R64/GCF_000146045.2_R64_genomic.fna.gz	NA	NA	NA
EP00145	Schizosaccharomyces_pombe	ftp://ftp.ncbi.nlm.nih.gov/genomes/all/GCF/000/002/945/GCF_000002945.1_ASM294v2/GCF_000002945.1_ASM294v2_protein.faa.gz	ftp://ftp.ncbi.nlm.nih.gov/genomes/all/GCF/000/002/945/GCF_000002945.1_ASM294v2/GCF_000002945.1_ASM294v2_genomic.fna.gz	NA	NA	NA
EP00146	Coprinopsis_cinerea	ftp://ftp.ncbi.nlm.nih.gov/genomes/all/GCF/000/182/895/GCF_000182895.1_CC3/GCF_000182895.1_CC3_protein.faa.gz	ftp://ftp.ncbi.nlm.nih.gov/genomes/all/GCF/000/182/895/GCF_000182895.1_CC3/GCF_000182895.1_CC3_genomic.fna.gz	NA	NA	NA
EP00147	Laccaria_bicolor	ftp://ftp.ncbi.nlm.nih.gov/genomes/all/GCF/000/143/565/GCF_000143565.1_V1.0/GCF_000143565.1_V1.0_protein.faa.gz	ftp://ftp.ncbi.nlm.nih.gov/genomes/all/GCF/000/143/565/GCF_000143565.1_V1.0/GCF_000143565.1_V1.0_genomic.fna.gz	NA	NA	NA
EP00148	Cryptococcus_gattii	ftp://ftp.ncbi.nlm.nih.gov/genomes/all/GCA/000/855/695/GCA_000855695.1_Cryp_gatt_CA1873_V1/GCA_000855695.1_Cryp_gatt_CA1873_V1_protein.faa.gz	ftp://ftp.ncbi.nlm.nih.gov/genomes/all/GCA/000/855/695/GCA_000855695.1_Cryp_gatt_CA1873_V1/GCA_000855695.1_Cryp_gatt_CA1873_V1_genomic.fna.gz	NA	NA	NA
EP00149	Cryptococcus_neoformans	ftp://ftp.ncbi.nlm.nih.gov/genomes/all/GCF/000/149/245/GCF_000149245.1_CNA3/GCF_000149245.1_CNA3_protein.faa.gz	ftp://ftp.ncbi.nlm.nih.gov/genomes/all/GCF/000/149/245/GCF_000149245.1_CNA3/GCF_000149245.1_CNA3_genomic.fna.gz	NA	NA	NA
EP00150	Ustilago_maydis	ftp://ftp.ncbi.nlm.nih.gov/genomes/all/GCF/000/328/475/GCF_000328475.2_Umaydis521_2.0/GCF_000328475.2_Umaydis521_2.0_protein.faa.gz	ftp://ftp.ncbi.nlm.nih.gov/genomes/all/GCF/000/328/475/GCF_000328475.2_Umaydis521_2.0/GCF_000328475.2_Umaydis521_2.0_genomic.fna.gz	NA	NA	NA
EP00151	Rhizophagus_irregularis	ftp://ftp.ncbi.nlm.nih.gov/genomes/all/GCF/000/439/145/GCF_000439145.1_ASM43914v3/GCF_000439145.1_ASM43914v3_protein.faa.gz	ftp://ftp.ncbi.nlm.nih.gov/genomes/all/GCF/000/439/145/GCF_000439145.1_ASM43914v3/GCF_000439145.1_ASM43914v3_genomic.fna.gz	NA	NA	NA
EP00152	Rhizopus_delemar	ftp://ftp.ncbi.nlm.nih.gov/genomes/all/GCA/000/149/305/GCA_000149305.1_RO3/GCA_000149305.1_RO3_protein.faa.gz	ftp://ftp.ncbi.nlm.nih.gov/genomes/all/GCA/000/149/305/GCA_000149305.1_RO3/GCA_000149305.1_RO3_genomic.fna.gz	NA	NA	NA
EP00153	Phycomyces_blakesleeanus	ftp://ftp.ncbi.nlm.nih.gov/genomes/all/GCF/001/638/985/GCF_001638985.1_Phybl2/GCF_001638985.1_Phybl2_protein.faa.gz	ftp://ftp.ncbi.nlm.nih.gov/genomes/all/GCF/001/638/985/GCF_001638985.1_Phybl2/GCF_001638985.1_Phybl2_genomic.fna.gz	NA	NA	NA
EP00154	Conidiobolus_coronatus	ftp://ftp.ncbi.nlm.nih.gov/genomes/all/GCA/001/566/745/GCA_001566745.1_Conidiobolus_coronatus_NRRL28638/GCA_001566745.1_Conidiobolus_coronatus_NRRL28638_protein.faa.gz	ftp://ftp.ncbi.nlm.nih.gov/genomes/all/GCA/001/566/745/GCA_001566745.1_Conidiobolus_coronatus_NRRL28638/GCA_001566745.1_Conidiobolus_coronatus_NRRL28638_genomic.fna.gz	NA	NA	NA
EP00155	Edhazardia_aedis	ftp://ftp.ncbi.nlm.nih.gov/genomes/all/GCA/000/230/595/GCA_000230595.3_Edha_aedis_V4b/GCA_000230595.3_Edha_aedis_V4b_protein.faa.gz	ftp://ftp.ncbi.nlm.nih.gov/genomes/all/GCA/000/230/595/GCA_000230595.3_Edha_aedis_V4b/GCA_000230595.3_Edha_aedis_V4b_genomic.fna.gz	NA	NA	NA
EP00156	Nosema_bombycis	ftp://ftp.ncbi.nlm.nih.gov/genomes/all/GCA/000/383/075/GCA_000383075.1_NosBomCQ1_v1.0/GCA_000383075.1_NosBomCQ1_v1.0_protein.faa.gz	ftp://ftp.ncbi.nlm.nih.gov/genomes/all/GCA/000/383/075/GCA_000383075.1_NosBomCQ1_v1.0/GCA_000383075.1_NosBomCQ1_v1.0_genomic.fna.gz	NA	NA	NA
EP00157	Rozella_allomycis	ftp://ftp.ncbi.nlm.nih.gov/genomes/all/GCA/000/442/015/GCA_000442015.1_Rozella_k41_t100/GCA_000442015.1_Rozella_k41_t100_protein.faa.gz	ftp://ftp.ncbi.nlm.nih.gov/genomes/all/GCA/000/442/015/GCA_000442015.1_Rozella_k41_t100/GCA_000442015.1_Rozella_k41_t100_genomic.fna.gz	NA	NA	NA
EP00159	Fonticula_alba	ftp://ftp.ncbi.nlm.nih.gov/genomes/all/GCF/000/388/065/GCF_000388065.1_Font_alba_ATCC_38817_V2/GCF_000388065.1_Font_alba_ATCC_38817_V2_protein.faa.gz	ftp://ftp.ncbi.nlm.nih.gov/genomes/all/GCF/000/388/065/GCF_000388065.1_Font_alba_ATCC_38817_V2/GCF_000388065.1_Font_alba_ATCC_38817_V2_genomic.fna.gz	NA	NA	NA
EP00165	Cyanidioschyzon_merolae	ftp://ftp.ncbi.nlm.nih.gov/genomes/all/GCF/000/091/205/GCF_000091205.1_ASM9120v1/GCF_000091205.1_ASM9120v1_protein.faa.gz	ftp://ftp.ncbi.nlm.nih.gov/genomes/all/GCF/000/091/205/GCF_000091205.1_ASM9120v1/GCF_000091205.1_ASM9120v1_genomic.fna.gz	NA	NA	NA
EP00166	Cyanidium_caldarium	http://cyanophora.rutgers.edu/redEST/redESTs.tar.gz	NA	NA	NA	S
EP00167	Galdieria_sulphuraria	ftp://ftp.ncbi.nlm.nih.gov/genomes/all/GCF/000/341/285/GCF_000341285.1_ASM34128v1/GCF_000341285.1_ASM34128v1_protein.faa.gz	ftp://ftp.ncbi.nlm.nih.gov/genomes/all/GCF/000/341/285/GCF_000341285.1_ASM34128v1/GCF_000341285.1_ASM34128v1_genomic.fna.gz	NA	NA	NA
EP00169	Porphyra_umbilicalis	ftp://ftp.ncbi.nlm.nih.gov/genomes/all/GCA/002/049/455/GCA_002049455.2_P_umbilicalis_v1/GCA_002049455.2_P_umbilicalis_v1_protein.faa.gz	ftp://ftp.ncbi.nlm.nih.gov/genomes/all/GCA/002/049/455/GCA_002049455.2_P_umbilicalis_v1/GCA_002049455.2_P_umbilicalis_v1_genomic.fna.gz	NA	NA	NA
EP00170	Pyropia_yezoensis	http://nrifs.fra.affrc.go.jp/cgi-bin/lime_download/lime.cgi?nori_FASTA_AminoAcid	NA	NA	NA	G
EP00171	Calliarthron_tuberculosum	http://realdb.algaegenome.org/P.c.t.html#	NA	NA	NA	M
EP00176	Chondrus_crispus	ftp://ftp.ncbi.nlm.nih.gov/genomes/all/GCF/000/350/225/GCF_000350225.1_ASM35022v2/GCF_000350225.1_ASM35022v2_protein.faa.gz	ftp://ftp.ncbi.nlm.nih.gov/genomes/all/GCF/000/350/225/GCF_000350225.1_ASM35022v2/GCF_000350225.1_ASM35022v2_genomic.fna.gz	NA	NA	NA
EP00185	Porphyridium_purpureum	http://porphyra.rutgers.edu/Porphyridium_purpureum_v2_genome_data.zip	NA	NA	NA	G
EP00198	Chlamydomonas_reinhardtii	ftp://ftp.ncbi.nlm.nih.gov/genomes/all/GCF/000/002/595/GCF_000002595.1_v3.0/GCF_000002595.1_v3.0_protein.faa.gz	ftp://ftp.ncbi.nlm.nih.gov/genomes/all/GCF/000/002/595/GCF_000002595.1_v3.0/GCF_000002595.1_v3.0_genomic.fna.gz	NA	NA	NA
EP00202	Volvox_carteri	ftp://ftp.ncbi.nlm.nih.gov/genomes/all/GCF/000/143/455/GCF_000143455.1_v1.0/GCF_000143455.1_v1.0_protein.faa.gz	ftp://ftp.ncbi.nlm.nih.gov/genomes/all/GCF/000/143/455/GCF_000143455.1_v1.0/GCF_000143455.1_v1.0_genomic.fna.gz	NA	NA	NA
EP00203	Chlorella_variabilis	ftp://ftp.ncbi.nlm.nih.gov/genomes/all/GCF/000/147/415/GCF_000147415.1_v_1.0/GCF_000147415.1_v_1.0_protein.faa.gz	ftp://ftp.ncbi.nlm.nih.gov/genomes/all/GCF/000/147/415/GCF_000147415.1_v_1.0/GCF_000147415.1_v_1.0_genomic.fna.gz	NA	NA	NA
EP00206	Coccomyxa_subellipsoidea	ftp://ftp.ncbi.nlm.nih.gov/genomes/all/GCF/000/258/705/GCF_000258705.1_Coccomyxa_subellipsoidae_v2.0/GCF_000258705.1_Coccomyxa_subellipsoidae_v2.0_protein.faa.gz	ftp://ftp.ncbi.nlm.nih.gov/genomes/all/GCF/000/258/705/GCF_000258705.1_Coccomyxa_subellipsoidae_v2.0/GCF_000258705.1_Coccomyxa_subellipsoidae_v2.0_genomic.fna.gz	NA	NA	NA
EP00207	Helicosporidium_sp_ATCC50920	ftp://ftp.ncbi.nlm.nih.gov/genomes/all/GCA/000/690/575/GCA_000690575.1_Helico_v1.0/GCA_000690575.1_Helico_v1.0_protein.faa.gz	ftp://ftp.ncbi.nlm.nih.gov/genomes/all/GCA/000/690/575/GCA_000690575.1_Helico_v1.0/GCA_000690575.1_Helico_v1.0_genomic.fna.gz	NA	NA	NA
EP00210	Caulerpa_lentillifera	http://marinegenomics.oist.jp/umibudo/download/clen_genemodels-v1.1.faa.gz	NA	NA	NA	S
EP00222	Ostreococcus_lucimarinus	ftp://ftp.ncbi.nlm.nih.gov/genomes/all/GCF/000/092/065/GCF_000092065.1_ASM9206v1/GCF_000092065.1_ASM9206v1_protein.faa.gz	ftp://ftp.ncbi.nlm.nih.gov/genomes/all/GCF/000/092/065/GCF_000092065.1_ASM9206v1/GCF_000092065.1_ASM9206v1_genomic.fna.gz	NA	NA	NA
EP00224	Ostreococcus_tauri	ftp://ftp.ncbi.nlm.nih.gov/genomes/all/GCF/000/214/015/GCF_000214015.3_version_140606/GCF_000214015.3_version_140606_protein.faa.gz	ftp://ftp.ncbi.nlm.nih.gov/genomes/all/GCF/000/214/015/GCF_000214015.3_version_140606/GCF_000214015.3_version_140606_genomic.fna.gz	NA	NA	NA
EP00229	Micromonas_commoda	ftp://ftp.ncbi.nlm.nih.gov/genomes/all/GCF/000/090/985/GCF_000090985.2_ASM9098v2/GCF_000090985.2_ASM9098v2_protein.faa.gz	ftp://ftp.ncbi.nlm.nih.gov/genomes/all/GCF/000/090/985/GCF_000090985.2_ASM9098v2/GCF_000090985.2_ASM9098v2_genomic.fna.gz	NA	NA	NA
EP00231	Micromonas_pusilla	ftp://ftp.ncbi.nlm.nih.gov/genomes/all/GCF/000/151/265/GCF_000151265.2_Micromonas_pusilla_CCMP1545_v2.0/GCF_000151265.2_Micromonas_pusilla_CCMP1545_v2.0_protein.faa.gz	ftp://ftp.ncbi.nlm.nih.gov/genomes/all/GCF/000/151/265/GCF_000151265.2_Micromonas_pusilla_CCMP1545_v2.0/GCF_000151265.2_Micromonas_pusilla_CCMP1545_v2.0_genomic.fna.gz	NA	NA	NA
EP00247	Physcomitrium_patens	ftp://ftp.ncbi.nlm.nih.gov/genomes/all/GCF/000/002/425/GCF_000002425.4_Phypa_V3/GCF_000002425.4_Phypa_V3_protein.faa.gz	ftp://ftp.ncbi.nlm.nih.gov/genomes/all/GCF/000/002/425/GCF_000002425.4_Phypa_V3/GCF_000002425.4_Phypa_V3_genomic.fna.gz	NA	NA	NA
EP00248	Marchantia_polymorpha	ftp://ftp.ncbi.nlm.nih.gov/genomes/all/GCA/003/032/435/GCA_003032435.1_Marchanta_polymorpha_v1/GCA_003032435.1_Marchanta_polymorpha_v1_protein.faa.gz	ftp://ftp.ncbi.nlm.nih.gov/genomes/all/GCA/003/032/435/GCA_003032435.1_Marchanta_polymorpha_v1/GCA_003032435.1_Marchanta_polymorpha_v1_genomic.fna.gz	NA	NA	NA
EP00253	Pinus_taeda	https://treegenesdb.org/FTP/Genomes/Pita/v2.01/annotation/Pita.2_01.peptides.fa.gz	NA	NA	NA	G
EP00254	Amborella_trichopoda	ftp://ftp.ncbi.nlm.nih.gov/genomes/all/GCF/000/471/905/GCF_000471905.2_AMTR1.0/GCF_000471905.2_AMTR1.0_protein.faa.gz	ftp://ftp.ncbi.nlm.nih.gov/genomes/all/GCF/000/471/905/GCF_000471905.2_AMTR1.0/GCF_000471905.2_AMTR1.0_genomic.fna.gz	NA	NA	NA
EP00255	Erythranthe_guttata	ftp://ftp.ncbi.nlm.nih.gov/genomes/all/GCF/000/504/015/GCF_000504015.1_Mimgu1_0/GCF_000504015.1_Mimgu1_0_protein.faa.gz	ftp://ftp.ncbi.nlm.nih.gov/genomes/all/GCF/000/504/015/GCF_000504015.1_Mimgu1_0/GCF_000504015.1_Mimgu1_0_genomic.fna.gz	NA	NA	NA
EP00256	Glycine_max	ftp://ftp.ncbi.nlm.nih.gov/genomes/all/GCF/000/004/515/GCF_000004515.5_Glycine_max_v2.1/GCF_000004515.5_Glycine_max_v2.1_protein.faa.gz	ftp://ftp.ncbi.nlm.nih.gov/genomes/all/GCF/000/004/515/GCF_000004515.5_Glycine_max_v2.1/GCF_000004515.5_Glycine_max_v2.1_genomic.fna.gz	NA	NA	NA
EP00257	Ricinus_communis	ftp://ftp.ncbi.nlm.nih.gov/genomes/all/GCF/000/151/685/GCF_000151685.1_JCVI_RCG_1.1/GCF_000151685.1_JCVI_RCG_1.1_protein.faa.gz	ftp://ftp.ncbi.nlm.nih.gov/genomes/all/GCF/000/151/685/GCF_000151685.1_JCVI_RCG_1.1/GCF_000151685.1_JCVI_RCG_1.1_genomic.fna.gz	NA	NA	NA
EP00258	Populus_trichocarpa	ftp://ftp.ncbi.nlm.nih.gov/genomes/all/GCF/000/002/775/GCF_000002775.4_Pop_tri_v3/GCF_000002775.4_Pop_tri_v3_protein.faa.gz	ftp://ftp.ncbi.nlm.nih.gov/genomes/all/GCF/000/002/775/GCF_000002775.4_Pop_tri_v3/GCF_000002775.4_Pop_tri_v3_genomic.fna.gz	NA	NA	NA
EP00259	Arabidopsis_lyrata	ftp://ftp.ncbi.nlm.nih.gov/genomes/all/GCF/000/004/255/GCF_000004255.2_v.1.0/GCF_000004255.2_v.1.0_protein.faa.gz	ftp://ftp.ncbi.nlm.nih.gov/genomes/all/GCF/000/004/255/GCF_000004255.2_v.1.0/GCF_000004255.2_v.1.0_genomic.fna.gz	NA	NA	NA
EP00260	Arabidopsis_thaliana	ftp://ftp.ncbi.nlm.nih.gov/genomes/all/GCF/000/001/735/GCF_000001735.4_TAIR10.1/GCF_000001735.4_TAIR10.1_protein.faa.gz	ftp://ftp.ncbi.nlm.nih.gov/genomes/all/GCF/000/001/735/GCF_000001735.4_TAIR10.1/GCF_000001735.4_TAIR10.1_genomic.fna.gz	NA	NA	NA
EP00261	Vitis_vinifera	ftp://ftp.ncbi.nlm.nih.gov/genomes/all/GCF/000/003/745/GCF_000003745.3_12X/GCF_000003745.3_12X_protein.faa.gz	ftp://ftp.ncbi.nlm.nih.gov/genomes/all/GCF/000/003/745/GCF_000003745.3_12X/GCF_000003745.3_12X_genomic.fna.gz	NA	NA	NA
EP00263	Brachypodium_distachyon	ftp://ftp.ncbi.nlm.nih.gov/genomes/all/GCF/000/005/505/GCF_000005505.3_Brachypodium_distachyon_v3.0/GCF_000005505.3_Brachypodium_distachyon_v3.0_protein.faa.gz	ftp://ftp.ncbi.nlm.nih.gov/genomes/all/GCF/000/005/505/GCF_000005505.3_Brachypodium_distachyon_v3.0/GCF_000005505.3_Brachypodium_distachyon_v3.0_genomic.fna.gz	NA	NA	NA
EP00264	Hordeum_vulgare	ftp://ftp.ensemblgenomes.org/pub/plants/release-42/fasta/hordeum_vulgare/pep/Hordeum_vulgare.IBSC_v2.pep.all.fa.gz	ftp://ftp.ensemblgenomes.org/pub/plants/release-42/fasta/hordeum_vulgare/dna/Hordeum_vulgare.IBSC_v2.dna.toplevel.fa.gz	NA	NA	NA
EP00265	Oryza_sativa	ftp://ftp.ncbi.nlm.nih.gov/genomes/all/GCF/000/005/425/GCF_000005425.2_Build_4.0/GCF_000005425.2_Build_4.0_protein.faa.gz	ftp://ftp.ncbi.nlm.nih.gov/genomes/all/GCF/000/005/425/GCF_000005425.2_Build_4.0/GCF_000005425.2_Build_4.0_genomic.fna.gz	NA	NA	NA
EP00266	Sorghum_bicolor	ftp://ftp.ncbi.nlm.nih.gov/genomes/all/GCF/000/003/195/GCF_000003195.3_Sorghum_bicolor_NCBIv3/GCF_000003195.3_Sorghum_bicolor_NCBIv3_protein.faa.gz	ftp://ftp.ncbi.nlm.nih.gov/genomes/all/GCF/000/003/195/GCF_000003195.3_Sorghum_bicolor_NCBIv3/GCF_000003195.3_Sorghum_bicolor_NCBIv3_genomic.fna.gz	NA	NA	NA
EP00267	Zea_mays	ftp://ftp.ncbi.nlm.nih.gov/genomes/all/GCF/000/005/005/GCF_000005005.2_B73_RefGen_v4/GCF_000005005.2_B73_RefGen_v4_protein.faa.gz	ftp://ftp.ncbi.nlm.nih.gov/genomes/all/GCF/000/005/005/GCF_000005005.2_B73_RefGen_v4/GCF_000005005.2_B73_RefGen_v4_genomic.fna.gz	NA	NA	NA
EP00269	Selaginella_moellendorffii	ftp://ftp.ncbi.nlm.nih.gov/genomes/all/GCF/000/143/415/GCF_000143415.4_v1.0/GCF_000143415.4_v1.0_protein.faa.gz	ftp://ftp.ncbi.nlm.nih.gov/genomes/all/GCF/000/143/415/GCF_000143415.4_v1.0/GCF_000143415.4_v1.0_genomic.fna.gz	NA	NA	NA
EP00279	Guillardia_theta	ftp://ftp.ncbi.nlm.nih.gov/genomes/all/GCF/000/315/625/GCF_000315625.1_Guith1/GCF_000315625.1_Guith1_protein.faa.gz	ftp://ftp.ncbi.nlm.nih.gov/genomes/all/GCF/000/315/625/GCF_000315625.1_Guith1/GCF_000315625.1_Guith1_genomic.fna.gz	NA	NA	NA
EP00314	Emiliania_huxleyi	ftp://ftp.ncbi.nlm.nih.gov/genomes/all/GCF/000/372/725/GCF_000372725.1_Emiliana_huxleyi_CCMP1516_main_genome_assembly_v1.0/GCF_000372725.1_Emiliana_huxleyi_CCMP1516_main_genome_assembly_v1.0_protein.faa.gz	ftp://ftp.ncbi.nlm.nih.gov/genomes/all/GCF/000/372/725/GCF_000372725.1_Emiliana_huxleyi_CCMP1516_main_genome_assembly_v1.0/GCF_000372725.1_Emiliana_huxleyi_CCMP1516_main_genome_assembly_v1.0_genomic.fna.gz	NA	NA	NA
EP00323	Chrysochromulina_tobinii	ftp://ftp.ncbi.nlm.nih.gov/genomes/all/GCA/001/275/005/GCA_001275005.1_Ctobinv2/GCA_001275005.1_Ctobinv2_protein.faa.gz	ftp://ftp.ncbi.nlm.nih.gov/genomes/all/GCA/001/275/005/GCA_001275005.1_Ctobinv2/GCA_001275005.1_Ctobinv2_genomic.fna.gz	NA	NA	NA
EP00329	Picozoa_sp_Boothbay-MS584-11	http://dbdata.rutgers.edu/data/pico	NA	NA	NA	M
EP00332	Ichthyophthirius_multifiliis	ftp://ftp.ncbi.nlm.nih.gov/genomes/all/GCF/000/220/395/GCF_000220395.1_JCVI-IMG1-V.1/GCF_000220395.1_JCVI-IMG1-V.1_protein.faa.gz	ftp://ftp.ncbi.nlm.nih.gov/genomes/all/GCF/000/220/395/GCF_000220395.1_JCVI-IMG1-V.1/GCF_000220395.1_JCVI-IMG1-V.1_genomic.fna.gz	NA	NA	NA
EP00333	Tetrahymena_thermophila	ftp://ftp.ncbi.nlm.nih.gov/genomes/all/GCF/000/189/635/GCF_000189635.1_JCVI-TTA1-2.2/GCF_000189635.1_JCVI-TTA1-2.2_protein.faa.gz	ftp://ftp.ncbi.nlm.nih.gov/genomes/all/GCF/000/189/635/GCF_000189635.1_JCVI-TTA1-2.2/GCF_000189635.1_JCVI-TTA1-2.2_genomic.fna.gz	NA	NA	NA
EP00334	Paramecium_tetraurelia	ftp://ftp.ncbi.nlm.nih.gov/genomes/all/GCF/000/165/425/GCF_000165425.1_ASM16542v1/GCF_000165425.1_ASM16542v1_protein.faa.gz	ftp://ftp.ncbi.nlm.nih.gov/genomes/all/GCF/000/165/425/GCF_000165425.1_ASM16542v1/GCF_000165425.1_ASM16542v1_genomic.fna.gz	NA	NA	NA
EP00336	Pseudocohnilembus_persalinus	ftp://ftp.ncbi.nlm.nih.gov/genomes/all/GCA/001/447/515/GCA_001447515.1_ASM144751v1/GCA_001447515.1_ASM144751v1_protein.faa.gz	ftp://ftp.ncbi.nlm.nih.gov/genomes/all/GCA/001/447/515/GCA_001447515.1_ASM144751v1/GCA_001447515.1_ASM144751v1_genomic.fna.gz	NA	NA	NA
EP00347	Sterkiella_histriomuscorum	https://www.ncbi.nlm.nih.gov/genome/347?genome_assembly_id=260499	NA	NA	NA	G
EP00348	Stylonychia_lemnae	ftp://ftp.ncbi.nlm.nih.gov/genomes/all/GCA/000/751/175/GCA_000751175.1_Stylonychia_lemnae_asm_v1.0/GCA_000751175.1_Stylonychia_lemnae_asm_v1.0_protein.faa.gz	ftp://ftp.ncbi.nlm.nih.gov/genomes/all/GCA/000/751/175/GCA_000751175.1_Stylonychia_lemnae_asm_v1.0/GCA_000751175.1_Stylonychia_lemnae_asm_v1.0_genomic.fna.gz	NA	NA	NA
EP00364	Plasmodium_chabaudi	ftp://ftp.ncbi.nlm.nih.gov/genomes/all/GCF/900/002/335/GCF_900002335.2_PCHAS01/GCF_900002335.2_PCHAS01_protein.faa.gz	ftp://ftp.ncbi.nlm.nih.gov/genomes/all/GCF/900/002/335/GCF_900002335.2_PCHAS01/GCF_900002335.2_PCHAS01_genomic.fna.gz	NA	NA	NA
EP00365	Plasmodium_falciparum	ftp://ftp.ncbi.nlm.nih.gov/genomes/all/GCF/000/002/765/GCF_000002765.4_ASM276v2/GCF_000002765.4_ASM276v2_protein.faa.gz	ftp://ftp.ncbi.nlm.nih.gov/genomes/all/GCF/000/002/765/GCF_000002765.4_ASM276v2/GCF_000002765.4_ASM276v2_genomic.fna.gz	NA	NA	NA
EP00366	Plasmodium_knowlesi	ftp://ftp.ncbi.nlm.nih.gov/genomes/all/GCF/000/006/355/GCF_000006355.1_ASM635v1/GCF_000006355.1_ASM635v1_protein.faa.gz	ftp://ftp.ncbi.nlm.nih.gov/genomes/all/GCF/000/006/355/GCF_000006355.1_ASM635v1/GCF_000006355.1_ASM635v1_genomic.fna.gz	NA	NA	NA
EP00367	Plasmodium_vivax	ftp://ftp.ncbi.nlm.nih.gov/genomes/all/GCF/000/002/415/GCF_000002415.2_ASM241v2/GCF_000002415.2_ASM241v2_protein.faa.gz	ftp://ftp.ncbi.nlm.nih.gov/genomes/all/GCF/000/002/415/GCF_000002415.2_ASM241v2/GCF_000002415.2_ASM241v2_genomic.fna.gz	NA	NA	NA
EP00369	Babesia_microti	ftp://ftp.ncbi.nlm.nih.gov/genomes/all/GCF/000/691/945/GCF_000691945.2_ASM69194v2/GCF_000691945.2_ASM69194v2_protein.faa.gz	ftp://ftp.ncbi.nlm.nih.gov/genomes/all/GCF/000/691/945/GCF_000691945.2_ASM69194v2/GCF_000691945.2_ASM69194v2_genomic.fna.gz	NA	NA	NA
EP00370	Babesia_bigemina	ftp://ftp.ncbi.nlm.nih.gov/genomes/all/GCF/000/981/445/GCF_000981445.1_Bbig001/GCF_000981445.1_Bbig001_protein.faa.gz	ftp://ftp.ncbi.nlm.nih.gov/genomes/all/GCF/000/981/445/GCF_000981445.1_Bbig001/GCF_000981445.1_Bbig001_genomic.fna.gz	NA	NA	NA
EP00371	Babesia_bovis	ftp://ftp.ncbi.nlm.nih.gov/genomes/all/GCF/000/165/395/GCF_000165395.1_ASM16539v1/GCF_000165395.1_ASM16539v1_protein.faa.gz	ftp://ftp.ncbi.nlm.nih.gov/genomes/all/GCF/000/165/395/GCF_000165395.1_ASM16539v1/GCF_000165395.1_ASM16539v1_genomic.fna.gz	NA	NA	NA
EP00372	Theileria_equi	ftp://ftp.ncbi.nlm.nih.gov/genomes/all/GCF/000/342/415/GCF_000342415.1_JCVI-bewag-v1.1/GCF_000342415.1_JCVI-bewag-v1.1_protein.faa.gz	ftp://ftp.ncbi.nlm.nih.gov/genomes/all/GCF/000/342/415/GCF_000342415.1_JCVI-bewag-v1.1/GCF_000342415.1_JCVI-bewag-v1.1_genomic.fna.gz	NA	NA	NA
EP00373	Theileria_annulata	ftp://ftp.ncbi.nlm.nih.gov/genomes/all/GCF/000/003/225/GCF_000003225.3_ASM322v1/GCF_000003225.3_ASM322v1_protein.faa.gz	ftp://ftp.ncbi.nlm.nih.gov/genomes/all/GCF/000/003/225/GCF_000003225.3_ASM322v1/GCF_000003225.3_ASM322v1_genomic.fna.gz	NA	NA	NA
EP00374	Theileria_orientalis	ftp://ftp.ncbi.nlm.nih.gov/genomes/all/GCF/000/740/895/GCF_000740895.1_ASM74089v1/GCF_000740895.1_ASM74089v1_protein.faa.gz	ftp://ftp.ncbi.nlm.nih.gov/genomes/all/GCF/000/740/895/GCF_000740895.1_ASM74089v1/GCF_000740895.1_ASM74089v1_genomic.fna.gz	NA	NA	NA
EP00375	Theileria_parva	ftp://ftp.ncbi.nlm.nih.gov/genomes/all/GCF/000/165/365/GCF_000165365.1_ASM16536v1/GCF_000165365.1_ASM16536v1_protein.faa.gz	ftp://ftp.ncbi.nlm.nih.gov/genomes/all/GCF/000/165/365/GCF_000165365.1_ASM16536v1/GCF_000165365.1_ASM16536v1_genomic.fna.gz	NA	NA	NA
EP00376	Eimeria_tenella	ftp://ftp.ncbi.nlm.nih.gov/genomes/all/GCF/000/499/545/GCF_000499545.2_ETH001/GCF_000499545.2_ETH001_protein.faa.gz	ftp://ftp.ncbi.nlm.nih.gov/genomes/all/GCF/000/499/545/GCF_000499545.2_ETH001/GCF_000499545.2_ETH001_genomic.fna.gz	NA	NA	NA
EP00377	Hammondia_hammondi	ftp://ftp.ncbi.nlm.nih.gov/genomes/all/GCF/000/258/005/GCF_000258005.1_HHA1_v02/GCF_000258005.1_HHA1_v02_protein.faa.gz	ftp://ftp.ncbi.nlm.nih.gov/genomes/all/GCF/000/258/005/GCF_000258005.1_HHA1_v02/GCF_000258005.1_HHA1_v02_genomic.fna.gz	NA	NA	NA
EP00378	Neospora_caninum	ftp://ftp.ncbi.nlm.nih.gov/genomes/all/GCF/000/208/865/GCF_000208865.1_ASM20886v2/GCF_000208865.1_ASM20886v2_protein.faa.gz	ftp://ftp.ncbi.nlm.nih.gov/genomes/all/GCF/000/208/865/GCF_000208865.1_ASM20886v2/GCF_000208865.1_ASM20886v2_genomic.fna.gz	NA	NA	NA
EP00379	Toxoplasma_gondii	ftp://ftp.ncbi.nlm.nih.gov/genomes/all/GCF/000/006/565/GCF_000006565.2_TGA4/GCF_000006565.2_TGA4_protein.faa.gz	ftp://ftp.ncbi.nlm.nih.gov/genomes/all/GCF/000/006/565/GCF_000006565.2_TGA4/GCF_000006565.2_TGA4_genomic.fna.gz	NA	NA	NA
EP00380	Ascogregarina_taiwanensis	https://www.ncbi.nlm.nih.gov/genome/818?genome_assembly_id=31366	NA	NA	NA	M
EP00381	Gregarina_niphandrodes	ftp://ftp.ncbi.nlm.nih.gov/genomes/all/GCF/000/223/845/GCF_000223845.1_GNI3/GCF_000223845.1_GNI3_protein.faa.gz	ftp://ftp.ncbi.nlm.nih.gov/genomes/all/GCF/000/223/845/GCF_000223845.1_GNI3/GCF_000223845.1_GNI3_genomic.fna.gz	NA	NA	NA
EP00384	Cryptosporidium_muris	ftp://ftp.ncbi.nlm.nih.gov/genomes/all/GCF/000/006/515/GCF_000006515.1_JCVI_cmg_v1.0/GCF_000006515.1_JCVI_cmg_v1.0_protein.faa.gz	ftp://ftp.ncbi.nlm.nih.gov/genomes/all/GCF/000/006/515/GCF_000006515.1_JCVI_cmg_v1.0/GCF_000006515.1_JCVI_cmg_v1.0_genomic.fna.gz	NA	NA	NA
EP00390	Vitrella_brassicaformis	ftp://ftp.ncbi.nlm.nih.gov/genomes/all/GCA/001/179/505/GCA_001179505.1_Vbrassicaformis/GCA_001179505.1_Vbrassicaformis_protein.faa.gz	ftp://ftp.ncbi.nlm.nih.gov/genomes/all/GCA/001/179/505/GCA_001179505.1_Vbrassicaformis/GCA_001179505.1_Vbrassicaformis_genomic.fna.gz	NA	NA	NA
EP00392	Amoebophrya_sp_AT5.2	https://advances.sciencemag.org/highwire/filestream/213364/field_highwire_adjunct_files/3/aav1110_Data_file_S4.zip	NA	NA	NA	S
EP00395	MALV-II_sp_L67-2	https://doi.org/10.5061/dryad.hg56n	NA	NA	NA	M
EP00396	MALV-II-16_sp_LP-1	https://doi.org/10.5061/dryad.hg56n	NA	NA	NA	S
EP00398	MALV-I-01_sp_L67-1	https://doi.org/10.5061/dryad.hg56n	NA	NA	NA	M
EP00399	MALV-I-05_sp_L67-4	https://doi.org/10.5061/dryad.hg56n	NA	NA	NA	M
EP00400	MALV-I_sp_L67-5	https://doi.org/10.5061/dryad.hg56n	NA	NA	NA	S
EP00434	Breviolum_minutum	https://marinegenomics.oist.jp/symb/download/symbB.v1.2.augustus.prot.fa.gz	NA	NA	NA	M
EP00435	Cladocopium_sp_Y103	https://marinegenomics.oist.jp/symb/download/symC_aug_40.aa.gz	NA	NA	NA	G
EP00438	Fugacium_kawagutii	http://web.malab.cn/symka_new/data/Symbiodinium_kawagutii.0819.final.gene.zip	NA	NA	NA	M
EP00439	Symbiodinium_sp_Y106	https://marinegenomics.oist.jp/symb/download/syma_aug_37.aa.gz	NA	NA	NA	S
EP00452	MALV-II_sp_L67-6	https://doi.org/10.5061/dryad.hg56n	NA	NA	NA	M
EP00454	Perkinsus_marinus	ftp://ftp.ncbi.nlm.nih.gov/genomes/all/GCF/000/006/405/GCF_000006405.1_JCVI_PMG_1.0/GCF_000006405.1_JCVI_PMG_1.0_protein.faa.gz	ftp://ftp.ncbi.nlm.nih.gov/genomes/all/GCF/000/006/405/GCF_000006405.1_JCVI_PMG_1.0/GCF_000006405.1_JCVI_PMG_1.0_genomic.fna.gz	NA	NA	NA
EP00466	Bigelowiella_natans	https://genome.jgi.doe.gov/Bigna1/Bigna1.download.html	NA	NA	NA	G
EP00473	Plasmodiophora_brassicae	ftp://ftp.ensemblgenomes.org/pub/protists/release-43/fasta/protists_rhizaria1_collection/plasmodiophora_brassicae/pep/Plasmodiophora_brassicae.pbe3.h15.pep.all.fa.gz	ftp://ftp.ensemblgenomes.org/pub/protists/release-43/fasta/protists_rhizaria1_collection/plasmodiophora_brassicae/dna/Plasmodiophora_brassicae.pbe3.h15.dna.toplevel.fa.gz	NA	NA	NA
EP00480	Reticulomyxa_filosa	ftp://ftp.ncbi.nlm.nih.gov/genomes/all/GCA/000/512/085/GCA_000512085.1_Reti_assembly1.0/GCA_000512085.1_Reti_assembly1.0_protein.faa.gz	ftp://ftp.ncbi.nlm.nih.gov/genomes/all/GCA/000/512/085/GCA_000512085.1_Reti_assembly1.0/GCA_000512085.1_Reti_assembly1.0_genomic.fna.gz	NA	NA	NA
EP00501	MAST-03F_sp_TOSAG23-6	http://www.genoscope.cns.fr/tara/	NA	NA	NA	S
EP00503	Blastocystis_sp_subtype4-isolateWR1	ftp://ftp.ncbi.nlm.nih.gov/genomes/all/GCF/000/743/755/GCF_000743755.1_ASM74375v1/GCF_000743755.1_ASM74375v1_protein.faa.gz	ftp://ftp.ncbi.nlm.nih.gov/genomes/all/GCF/000/743/755/GCF_000743755.1_ASM74375v1/GCF_000743755.1_ASM74375v1_genomic.fna.gz	NA	NA	NA
EP00504	Blastocystis_sp_subtype7-strainB	ftp://ftp.ncbi.nlm.nih.gov/genomes/all/GCF/000/151/665/GCF_000151665.1_ASM15166v1/GCF_000151665.1_ASM15166v1_protein.faa.gz	ftp://ftp.ncbi.nlm.nih.gov/genomes/all/GCF/000/151/665/GCF_000151665.1_ASM15166v1/GCF_000151665.1_ASM15166v1_genomic.fna.gz	NA	NA	NA
EP00505	MAST-04D_sp_SCG-Rhode-Island	http://cyanophora.rutgers.edu/MAST4/MAST4_proteins.fa	NA	NA	NA	S
EP00513	Hondaea_fermentalgiana	ftp://ftp.ncbi.nlm.nih.gov/genomes/all/GCA/002/897/355/GCA_002897355.1_Aurantiochytrium_FCC1311_v1/GCA_002897355.1_Aurantiochytrium_FCC1311_v1_protein.faa.gz	ftp://ftp.ncbi.nlm.nih.gov/genomes/all/GCA/002/897/355/GCA_002897355.1_Aurantiochytrium_FCC1311_v1/GCA_002897355.1_Aurantiochytrium_FCC1311_v1_genomic.fna.gz	NA	NA	NA
EP00528	Fragilariopsis_cylindrus	ftp://ftp.ncbi.nlm.nih.gov/genomes/all/GCA/001/750/085/GCA_001750085.1_Fracy1/GCA_001750085.1_Fracy1_protein.faa.gz	ftp://ftp.ncbi.nlm.nih.gov/genomes/all/GCA/001/750/085/GCA_001750085.1_Fracy1/GCA_001750085.1_Fracy1_genomic.fna.gz	NA	NA	NA
EP00530	Phaeodactylum_tricornutum	ftp://ftp.ncbi.nlm.nih.gov/genomes/all/GCF/000/150/955/GCF_000150955.2_ASM15095v2/GCF_000150955.2_ASM15095v2_protein.faa.gz	ftp://ftp.ncbi.nlm.nih.gov/genomes/all/GCF/000/150/955/GCF_000150955.2_ASM15095v2/GCF_000150955.2_ASM15095v2_genomic.fna.gz	NA	NA	NA
EP00536	Pseudo-nitzschia_multiseries	https://genome.jgi.doe.gov/portal/Psemu1/download/Psemu1_GeneCatalog_proteins_20111011.aa.fasta.gz	NA	NA	NA	G
EP00582	Thalassiosira_oceanica	ftp://ftp.ncbi.nlm.nih.gov/genomes/all/GCA/000/296/195/GCA_000296195.2_ThaOc_1.0/GCA_000296195.2_ThaOc_1.0_protein.faa.gz	ftp://ftp.ncbi.nlm.nih.gov/genomes/all/GCA/000/296/195/GCA_000296195.2_ThaOc_1.0/GCA_000296195.2_ThaOc_1.0_genomic.fna.gz	NA	NA	NA
EP00605	Chrysophyceae_sp_TOSAG23-4	http://www.genoscope.cns.fr/tara/	NA	NA	NA	M
EP00606	Chrysophyceae_sp_TOSAG23-5	http://www.genoscope.cns.fr/tara/	NA	NA	NA	S
EP00609	Ectocarpus_siliculosus	ftp://ftp.ncbi.nlm.nih.gov/genomes/all/GCA/000/310/025/GCA_000310025.1_ASM31002v1/GCA_000310025.1_ASM31002v1_protein.faa.gz	ftp://ftp.ncbi.nlm.nih.gov/genomes/all/GCA/000/310/025/GCA_000310025.1_ASM31002v1/GCA_000310025.1_ASM31002v1_genomic.fna.gz	NA	NA	NA
EP00623	Microchloropsis_gaditana	ftp://ftp.ncbi.nlm.nih.gov/genomes/all/GCF/000/240/725/GCF_000240725.1_ASM24072v1/GCF_000240725.1_ASM24072v1_protein.faa.gz	ftp://ftp.ncbi.nlm.nih.gov/genomes/all/GCF/000/240/725/GCF_000240725.1_ASM24072v1/GCF_000240725.1_ASM24072v1_genomic.fna.gz	NA	NA	NA
EP00624	Nannochloropsis_granulata	http://www.bioenergychina.org/fg/d.wang_genomes/	NA	NA	NA	S
EP00625	Aureococcus_anophagefferens	ftp://ftp.ncbi.nlm.nih.gov/genomes/all/GCF/000/186/865/GCF_000186865.1_v_1.0/GCF_000186865.1_v_1.0_protein.faa.gz	ftp://ftp.ncbi.nlm.nih.gov/genomes/all/GCF/000/186/865/GCF_000186865.1_v_1.0/GCF_000186865.1_v_1.0_genomic.fna.gz	NA	NA	NA
EP00641	Albugo_candida	ftp://ftp.ncbi.nlm.nih.gov/genomes/all/GCA/001/078/535/GCA_001078535.1_ASM107853v1/GCA_001078535.1_ASM107853v1_protein.faa.gz	ftp://ftp.ncbi.nlm.nih.gov/genomes/all/GCA/001/078/535/GCA_001078535.1_ASM107853v1/GCA_001078535.1_ASM107853v1_genomic.fna.gz	NA	NA	NA
EP00642	Albugo_laibachii	https://www.ncbi.nlm.nih.gov/bioproject/protein?LinkName=bioproject_protein&from_uid=53219	NA	NA	NA	S
EP00643	Hyaloperonospora_arabidopsidis	ftp://ftp.ensemblgenomes.org/pub/protists/release-43/fasta/hyaloperonospora_arabidopsidis/pep/Hyaloperonospora_arabidopsidis.HyaAraEmoy2_2.0.pep.all.fa.gz	ftp://ftp.ensemblgenomes.org/pub/protists/release-43/fasta/hyaloperonospora_arabidopsidis/dna/Hyaloperonospora_arabidopsidis.HyaAraEmoy2_2.0.dna.toplevel.fa.gz	NA	NA	NA
EP00644	Phytophthora_capsici	https://genome.jgi.doe.gov/portal/Phyca11/download/Phyca11_filtered_proteins.fasta.gz	NA	NA	NA	G
EP00645	Phytophthora_infestans	ftp://ftp.ncbi.nlm.nih.gov/genomes/all/GCF/000/142/945/GCF_000142945.1_ASM14294v1/GCF_000142945.1_ASM14294v1_protein.faa.gz	ftp://ftp.ncbi.nlm.nih.gov/genomes/all/GCF/000/142/945/GCF_000142945.1_ASM14294v1/GCF_000142945.1_ASM14294v1_genomic.fna.gz	NA	NA	NA
EP00646	Phytophthora_ramorum	ftp://ftp.ensemblgenomes.org/pub/protists/release-43/fasta/phytophthora_ramorum/pep/Phytophthora_ramorum.ASM14973v1.pep.all.fa.gz	ftp://ftp.ensemblgenomes.org/pub/protists/release-43/fasta/phytophthora_ramorum/dna/Phytophthora_ramorum.ASM14973v1.dna.toplevel.fa.gz	NA	NA	NA
EP00647	Phytophthora_sojae	ftp://ftp.ncbi.nlm.nih.gov/genomes/all/GCF/000/149/755/GCF_000149755.1_P.sojae_V3.0/GCF_000149755.1_P.sojae_V3.0_protein.faa.gz	ftp://ftp.ncbi.nlm.nih.gov/genomes/all/GCF/000/149/755/GCF_000149755.1_P.sojae_V3.0/GCF_000149755.1_P.sojae_V3.0_genomic.fna.gz	NA	NA	NA
EP00648	Phytopythium_vexans	ftp://ftp.ensemblgenomes.org/pub/protists/release-43/fasta/pythium_vexans/pep/Pythium_vexans.pve_scaffolds_v1.pep.all.fa.gz	ftp://ftp.ensemblgenomes.org/pub/protists/release-43/fasta/pythium_vexans/dna/Pythium_vexans.pve_scaffolds_v1.dna.toplevel.fa.gz	NA	NA	NA
EP00649	Plasmopara_halstedii	ftp://ftp.ncbi.nlm.nih.gov/genomes/all/GCF/900/000/015/GCF_900000015.1_Plasmopara_halstedii_genome/GCF_900000015.1_Plasmopara_halstedii_genome_protein.faa.gz	ftp://ftp.ncbi.nlm.nih.gov/genomes/all/GCF/900/000/015/GCF_900000015.1_Plasmopara_halstedii_genome/GCF_900000015.1_Plasmopara_halstedii_genome_genomic.fna.gz	NA	NA	NA
EP00650	Pythium_arrhenomanes	ftp://ftp.ensemblgenomes.org/pub/protists/release-43/fasta/pythium_arrhenomanes/pep/Pythium_arrhenomanes.par_scaffolds_v1.pep.all.fa.gz	ftp://ftp.ensemblgenomes.org/pub/protists/release-43/fasta/pythium_arrhenomanes/dna/Pythium_arrhenomanes.par_scaffolds_v1.dna.toplevel.fa.gz	NA	NA	NA
EP00652	Aphanomyces_astaci	ftp://ftp.ncbi.nlm.nih.gov/genomes/all/GCF/000/520/075/GCF_000520075.1_Apha_asta_APO3_V1/GCF_000520075.1_Apha_asta_APO3_V1_protein.faa.gz	ftp://ftp.ncbi.nlm.nih.gov/genomes/all/GCF/000/520/075/GCF_000520075.1_Apha_asta_APO3_V1/GCF_000520075.1_Apha_asta_APO3_V1_genomic.fna.gz	NA	NA	NA
EP00653	Aphanomyces_invadans	ftp://ftp.ncbi.nlm.nih.gov/genomes/all/GCF/000/520/115/GCF_000520115.1_Apha_inva_NJM9701_V1/GCF_000520115.1_Apha_inva_NJM9701_V1_protein.faa.gz	ftp://ftp.ncbi.nlm.nih.gov/genomes/all/GCF/000/520/115/GCF_000520115.1_Apha_inva_NJM9701_V1/GCF_000520115.1_Apha_inva_NJM9701_V1_genomic.fna.gz	NA	NA	NA
EP00654	Saprolegnia_diclina	ftp://ftp.ncbi.nlm.nih.gov/genomes/all/GCF/000/281/045/GCF_000281045.1_Sap_diclina_VS20_V1/GCF_000281045.1_Sap_diclina_VS20_V1_protein.faa.gz	ftp://ftp.ncbi.nlm.nih.gov/genomes/all/GCF/000/281/045/GCF_000281045.1_Sap_diclina_VS20_V1/GCF_000281045.1_Sap_diclina_VS20_V1_genomic.fna.gz	NA	NA	NA
EP00655	Saprolegnia_parasitica	ftp://ftp.ncbi.nlm.nih.gov/genomes/all/GCF/000/151/545/GCF_000151545.1_ASM15154v2/GCF_000151545.1_ASM15154v2_protein.faa.gz	ftp://ftp.ncbi.nlm.nih.gov/genomes/all/GCF/000/151/545/GCF_000151545.1_ASM15154v2/GCF_000151545.1_ASM15154v2_genomic.fna.gz	NA	NA	NA
EP00659	Diplonema_papillatum	ftp://ftp.ncbi.nlm.nih.gov/genomes/all/GCA/001/655/075/GCA_001655075.1_ASM165507v1/GCA_001655075.1_ASM165507v1_genomic.fna.gz	ftp://ftp.ncbi.nlm.nih.gov/genomes/all/GCA/001/655/075/GCA_001655075.1_ASM165507v1/GCA_001655075.1_ASM165507v1_genomic.fna.gz	NA	NA	NA
EP00660	Eupelagonema_oceanica	https://doi.org/10.5061/dryad.d19j0	NA	NA	NA	G
EP00661	Eupelagonemidae_sp_cell13	https://doi.org/10.5061/dryad.d19j0	NA	NA	NA	G
EP00662	Eupelagonemidae_sp_cell21	https://doi.org/10.5061/dryad.d19j0	NA	NA	NA	M
EP00663	Eupelagonemidae_sp_cell21sb	https://doi.org/10.5061/dryad.d19j0	NA	NA	NA	S
EP00664	Eupelagonemidae_sp_cell27	https://doi.org/10.5061/dryad.d19j0	NA	NA	NA	M
EP00665	Eupelagonemidae_sp_cell47	https://doi.org/10.5061/dryad.d19j0	NA	NA	NA	M
EP00666	Eupelagonemidae_sp_cell4sb	https://doi.org/10.5061/dryad.d19j0	NA	NA	NA	G
EP00667	Euglena_gracilis	ftp://ftp.pride.ebi.ac.uk/pride/data/archive/2019/01/PXD009998/Euglena_translated_transcriptome.fasta	NA	NA	NA	M
EP00671	Bodo_saltans	ftp://ftp.ncbi.nlm.nih.gov/genomes/all/GCA/001/460/835/GCA_001460835.1_BSAL/GCA_001460835.1_BSAL_protein.faa.gz	ftp://ftp.ncbi.nlm.nih.gov/genomes/all/GCA/001/460/835/GCA_001460835.1_BSAL/GCA_001460835.1_BSAL_genomic.fna.gz	NA	NA	NA
EP00673	Leishmania_infantum	ftp://ftp.ncbi.nlm.nih.gov/genomes/all/GCF/000/002/875/GCF_000002875.2_ASM287v2/GCF_000002875.2_ASM287v2_protein.faa.gz	ftp://ftp.ncbi.nlm.nih.gov/genomes/all/GCF/000/002/875/GCF_000002875.2_ASM287v2/GCF_000002875.2_ASM287v2_genomic.fna.gz	NA	NA	NA
EP00674	Leishmania_major	ftp://ftp.ncbi.nlm.nih.gov/genomes/all/GCF/000/002/725/GCF_000002725.2_ASM272v2/GCF_000002725.2_ASM272v2_protein.faa.gz	ftp://ftp.ncbi.nlm.nih.gov/genomes/all/GCF/000/002/725/GCF_000002725.2_ASM272v2/GCF_000002725.2_ASM272v2_genomic.fna.gz	NA	NA	NA
EP00675	Leptomonas_pyrrhocoris	ftp://ftp.ncbi.nlm.nih.gov/genomes/all/GCF/001/293/395/GCF_001293395.1_ASM129339v1/GCF_001293395.1_ASM129339v1_protein.faa.gz	ftp://ftp.ncbi.nlm.nih.gov/genomes/all/GCF/001/293/395/GCF_001293395.1_ASM129339v1/GCF_001293395.1_ASM129339v1_genomic.fna.gz	NA	NA	NA
EP00676	Leptomonas_seymouri	ftp://ftp.ncbi.nlm.nih.gov/genomes/all/GCA/001/299/535/GCA_001299535.1_ASM129953v1/GCA_001299535.1_ASM129953v1_protein.faa.gz	ftp://ftp.ncbi.nlm.nih.gov/genomes/all/GCA/001/299/535/GCA_001299535.1_ASM129953v1/GCA_001299535.1_ASM129953v1_genomic.fna.gz	NA	NA	NA
EP00677	Phytomonas_sp_EM1	ftp://ftp.ncbi.nlm.nih.gov/genomes/all/GCA/000/582/765/GCA_000582765.1_AKH_PRJEB1535_v1/GCA_000582765.1_AKH_PRJEB1535_v1_protein.faa.gz	ftp://ftp.ncbi.nlm.nih.gov/genomes/all/GCA/000/582/765/GCA_000582765.1_AKH_PRJEB1535_v1/GCA_000582765.1_AKH_PRJEB1535_v1_genomic.fna.gz	NA	NA	NA
EP00678	Phytomonas_sp_Hart1	ftp://ftp.ncbi.nlm.nih.gov/genomes/all/GCA/000/982/615/GCA_000982615.1_AKI_PRJEB1539_v1/GCA_000982615.1_AKI_PRJEB1539_v1_protein.faa.gz	ftp://ftp.ncbi.nlm.nih.gov/genomes/all/GCA/000/982/615/GCA_000982615.1_AKI_PRJEB1539_v1/GCA_000982615.1_AKI_PRJEB1539_v1_genomic.fna.gz	NA	NA	NA
EP00679	Angomonas_deanei	ftp://ftp.ncbi.nlm.nih.gov/genomes/all/GCA/000/442/575/GCA_000442575.2_Angomonas_deanei_Genome/GCA_000442575.2_Angomonas_deanei_Genome_protein.faa.gz	ftp://ftp.ncbi.nlm.nih.gov/genomes/all/GCA/000/442/575/GCA_000442575.2_Angomonas_deanei_Genome/GCA_000442575.2_Angomonas_deanei_Genome_genomic.fna.gz	NA	NA	NA
EP00680	Strigomonas_culicis	ftp://ftp.ncbi.nlm.nih.gov/genomes/all/GCA/000/442/495/GCA_000442495.1_Strigomonas_culicis_Genome/GCA_000442495.1_Strigomonas_culicis_Genome_protein.faa.gz	ftp://ftp.ncbi.nlm.nih.gov/genomes/all/GCA/000/442/495/GCA_000442495.1_Strigomonas_culicis_Genome/GCA_000442495.1_Strigomonas_culicis_Genome_genomic.fna.gz	NA	NA	NA
EP00681	Trypanosoma_brucei	ftp://ftp.ncbi.nlm.nih.gov/genomes/all/GCF/000/210/295/GCF_000210295.1_ASM21029v1/GCF_000210295.1_ASM21029v1_protein.faa.gz	ftp://ftp.ncbi.nlm.nih.gov/genomes/all/GCF/000/210/295/GCF_000210295.1_ASM21029v1/GCF_000210295.1_ASM21029v1_genomic.fna.gz	NA	NA	NA
EP00682	Trypanosoma_cruzi	ftp://ftp.ncbi.nlm.nih.gov/genomes/all/GCF/000/209/065/GCF_000209065.1_ASM20906v1/GCF_000209065.1_ASM20906v1_protein.faa.gz	ftp://ftp.ncbi.nlm.nih.gov/genomes/all/GCF/000/209/065/GCF_000209065.1_ASM20906v1/GCF_000209065.1_ASM20906v1_genomic.fna.gz	NA	NA	NA
EP00683	Trypanosoma_rangeli	ftp://ftp.ncbi.nlm.nih.gov/genomes/all/GCA/003/719/475/GCA_003719475.1_ASM371947v1/GCA_003719475.1_ASM371947v1_protein.faa.gz	ftp://ftp.ncbi.nlm.nih.gov/genomes/all/GCA/003/719/475/GCA_003719475.1_ASM371947v1/GCA_003719475.1_ASM371947v1_genomic.fna.gz	NA	NA	NA
EP00684	Trypanosoma_vivax	ftp://ftp.ncbi.nlm.nih.gov/genomes/all/GCA/000/227/375/GCA_000227375.1_ASM22737v1/GCA_000227375.1_ASM22737v1_protein.faa.gz	ftp://ftp.ncbi.nlm.nih.gov/genomes/all/GCA/000/227/375/GCA_000227375.1_ASM22737v1/GCA_000227375.1_ASM22737v1_genomic.fna.gz	NA	NA	NA
EP00685	Perkinsela_sp_CCAP1560-4	ftp://ftp.ncbi.nlm.nih.gov/genomes/all/GCA/001/235/845/GCA_001235845.1_ASM123584v1/GCA_001235845.1_ASM123584v1_protein.faa.gz	ftp://ftp.ncbi.nlm.nih.gov/genomes/all/GCA/001/235/845/GCA_001235845.1_ASM123584v1/GCA_001235845.1_ASM123584v1_genomic.fna.gz	NA	NA	NA
EP00686	Naegleria_gruberi	ftp://ftp.ncbi.nlm.nih.gov/genomes/all/GCF/000/004/985/GCF_000004985.1_V1.0/GCF_000004985.1_V1.0_protein.faa.gz	ftp://ftp.ncbi.nlm.nih.gov/genomes/all/GCF/000/004/985/GCF_000004985.1_V1.0/GCF_000004985.1_V1.0_genomic.fna.gz	NA	NA	NA
EP00701	Giardia_intestinalis	ftp://ftp.ncbi.nlm.nih.gov/genomes/all/GCF/000/002/435/GCF_000002435.1_GL2/GCF_000002435.1_GL2_protein.faa.gz	ftp://ftp.ncbi.nlm.nih.gov/genomes/all/GCF/000/002/435/GCF_000002435.1_GL2/GCF_000002435.1_GL2_genomic.fna.gz	NA	NA	NA
EP00702	Spironucleus_salmonicida	ftp://ftp.ncbi.nlm.nih.gov/genomes/all/GCA/000/497/125/GCA_000497125.1_SSK3.0/GCA_000497125.1_SSK3.0_protein.faa.gz	ftp://ftp.ncbi.nlm.nih.gov/genomes/all/GCA/000/497/125/GCA_000497125.1_SSK3.0/GCA_000497125.1_SSK3.0_genomic.fna.gz	NA	NA	NA
EP00704	Kipferlia_bialata	https://drive.google.com/drive/folders/1urQkvKazCDQCNoyIxKccClsFsjfRrRGF	NA	NA	NA	G
EP00705	Trichomonas_vaginalis	ftp://ftp.ncbi.nlm.nih.gov/genomes/all/GCF/000/002/825/GCF_000002825.2_ASM282v1/GCF_000002825.2_ASM282v1_protein.faa.gz	ftp://ftp.ncbi.nlm.nih.gov/genomes/all/GCF/000/002/825/GCF_000002825.2_ASM282v1/GCF_000002825.2_ASM282v1_genomic.fna.gz	NA	NA	NA
EP00706	Tritrichomonas_foetus	ftp://ftp.ncbi.nlm.nih.gov/genomes/all/GCA/001/839/685/GCA_001839685.1_ASM183968v1/GCA_001839685.1_ASM183968v1_protein.faa.gz	ftp://ftp.ncbi.nlm.nih.gov/genomes/all/GCA/001/839/685/GCA_001839685.1_ASM183968v1/GCA_001839685.1_ASM183968v1_genomic.fna.gz	NA	NA	NA
EP00727	Mastigamoeba_balamuthi	https://bioinformatics.psb.ugent.be/gdb/mastigamoeba/Masba_prot_LATEST.tfa.gz	NA	NA	NA	M
EP00729	Bicosta_minor	https://figshare.com/articles/4_well_Bicosta_minor_draft_assembly/8868596	NA	NA	NA	M
EP00731	Ephydatia_muelleri	https://bitbucket.org/EphydatiaGenome/ephydatiagenome/downloads/Emu_v1_prots.fasta.gz	NA	NA	NA	M
EP00734	Pompholyxophrys_sp_LG126	https://figshare.com/articles/Rotosphaerida_datasets_and_trees/7814411	NA	NA	NA	S
EP00738	Chloropicon_primus	https://ftp.ncbi.nlm.nih.gov/genomes/all/GCA/007/859/695/GCA_007859695.1_ASM785969v1/GCA_007859695.1_ASM785969v1_protein.faa.gz	https://ftp.ncbi.nlm.nih.gov/genomes/all/GCA/007/859/695/GCA_007859695.1_ASM785969v1/GCA_007859695.1_ASM785969v1_genomic.fna.gz	NA	NA	NA
EP00741	Cyanophora_paradoxa	http://cyanophora.rutgers.edu/cyanophora_v2018/Cyanophora-MAY2017-augustus-predictions.fasta	NA	NA	NA	G
EP00749	Cafeteria_burkhardae	https://ftp.ncbi.nlm.nih.gov/genomes/all/GCA/008/330/645/GCA_008330645.1_CrBVI/GCA_008330645.1_CrBVI_protein.faa.gz	https://ftp.ncbi.nlm.nih.gov/genomes/all/GCA/008/330/645/GCA_008330645.1_CrBVI/GCA_008330645.1_CrBVI_genomic.fna.gz	NA	NA	NA
EP00752	Nemacystus_decipiens	https://marinegenomics.oist.jp/ito_mozuku_v1/download/ito_mozuku_onna1_protein_seq.zip	NA	NA	NA	S
EP00757	Euglenozoa_sp_SAG-D1	https://figshare.com/articles/Assemblies_of_Diplonemid-like_SAG/7820060	NA	NA	NA	S
EP00762	Andalucia_godoyi	https://megasun.bch.umontreal.ca/Andalucia_godoyi/Andalucia_godoyi_proteome.faa	NA	NA	NA	S
EP00763	Giardia_muris	ftp://ftp.ncbi.nlm.nih.gov/genomes/all/GCA/006/247/105/GCA_006247105.1_UU_GM_1.1/GCA_006247105.1_UU_GM_1.1_protein.faa.gz	ftp://ftp.ncbi.nlm.nih.gov/genomes/all/GCA/006/247/105/GCA_006247105.1_UU_GM_1.1/GCA_006247105.1_UU_GM_1.1_genomic.fna.gz	NA	NA	NA
EP00770	Monocercomonoides_exilis	https://giardiadb.org/common/downloads/Current_Release/MexilisPA203/fasta/data/GiardiaDB-46_MexilisPA203_AnnotatedProteins.fasta	NA	NA	NA	M
EP00775	Hariotina_reticulata	https://ftp.cngb.org/pub/CNSA/data2/CNP0000705/CNS0130456/CNA0006823/	NA	NA	NA	S
EP00793	Prasinoderma_coloniale	http://ftp.cngb.org/pub/CNSA/data2/CNP0000924/CNS0223647/CNA0013964/	NA	NA	NA	S
EP00794	Sanderia_malayensis	https://ftp.ncbi.nlm.nih.gov/genomes/all/GCA/013/076/295/GCA_013076295.1_ASM1307629v1/GCA_013076295.1_ASM1307629v1_genomic.fna.gz	https://ftp.ncbi.nlm.nih.gov/genomes/all/GCA/013/076/295/GCA_013076295.1_ASM1307629v1/GCA_013076295.1_ASM1307629v1_genomic.fna.gz	NA	NA	NA
EP00795	Rhopilema_esculentum	https://ftp.ncbi.nlm.nih.gov/genomes/all/GCA/013/076/305/GCA_013076305.1_ASM1307630v1/GCA_013076305.1_ASM1307630v1_genomic.fna.gz	https://ftp.ncbi.nlm.nih.gov/genomes/all/GCA/013/076/305/GCA_013076305.1_ASM1307630v1/GCA_013076305.1_ASM1307630v1_genomic.fna.gz	NA	NA	NA
EP00796	Vickermania_ingenoplastis	https://ftp.ncbi.nlm.nih.gov/genomes/all/GCA/010/157/825/GCA_010157825.1_ASM1015782v1/GCA_010157825.1_ASM1015782v1_genomic.fna.gz	https://ftp.ncbi.nlm.nih.gov/genomes/all/GCA/010/157/825/GCA_010157825.1_ASM1015782v1/GCA_010157825.1_ASM1015782v1_genomic.fna.gz	NA	NA	NA
EP00797	Seminavis_robusta	https://bioinformatics.psb.ugent.be/gdb/seminavis/	NA	NA	NA	G
EP00798	Chlamydomonas_sp_ICE-L	https://ftp.ncbi.nlm.nih.gov/genomes/all/GCA/013/435/795/GCA_013435795.1_ASM1343579v1/GCA_013435795.1_ASM1343579v1_genomic.fna.gz	https://ftp.ncbi.nlm.nih.gov/genomes/all/GCA/013/435/795/GCA_013435795.1_ASM1343579v1/GCA_013435795.1_ASM1343579v1_genomic.fna.gz	NA	NA	NA
EP00799	Chlamydomonas_eustigma	https://ftp.ncbi.nlm.nih.gov/genomes/all/GCA/002/335/675/GCA_002335675.1_C.eustigma_genome_v1.0/GCA_002335675.1_C.eustigma_genome_v1.0_protein.faa.gz	https://ftp.ncbi.nlm.nih.gov/genomes/all/GCA/002/335/675/GCA_002335675.1_C.eustigma_genome_v1.0/GCA_002335675.1_C.eustigma_genome_v1.0_genomic.fna.gz	NA	NA	NA
EP00803	Ostreobium_quekettii	https://cloudstor.aarnet.edu.au/plus/s/X9xS30hE7MShsvB	NA	NA	NA	S
EP00804	Cyclotella_cryptica	https://doi.org/10.25387/g3.12341072	NA	NA	NA	M
EP00808	Paulinella_micropora	http://cyanophora.rutgers.edu/P_micropora/	NA	NA	NA	S
EP00810	Oxytricha_trifallax	ftp://ftp.ensemblgenomes.org/pub/protists/release-48/fasta/protists_alveolata1_collection/oxytricha_trifallax_gca_000711775/pep/Oxytricha_trifallax_gca_000711775.Oxytricha_MIC_v2.0.pep.all.fa.gz	ftp://ftp.ensemblgenomes.org/pub/protists/release-48/fasta/protists_alveolata1_collection/oxytricha_trifallax_gca_000711775/dna/Oxytricha_trifallax_gca_000711775.Oxytricha_MIC_v2.0.dna.toplevel.fa.gz	NA	NA	NA
EP00813	Pythium_oligandrum	https://ftp.ncbi.nlm.nih.gov/genomes/all/GCA/005/966/545/GCA_005966545.1_ASM596654v1/GCA_005966545.1_ASM596654v1_protein.faa.gz	https://ftp.ncbi.nlm.nih.gov/genomes/all/GCA/005/966/545/GCA_005966545.1_ASM596654v1/GCA_005966545.1_ASM596654v1_genomic.fna.gz	NA	NA	NA
EP00820	Chromera_velia	https://cryptodb.org/common/downloads/Current_Release/CveliaCCMP2878/fasta/data/CryptoDB-48_CveliaCCMP2878_AnnotatedProteins.fasta	NA	NA	NA	G
EP00821	Plasmodium_berghei	https://ftp.ncbi.nlm.nih.gov/genomes/all/GCF/900/002/375/GCF_900002375.2_GCA_900002375/GCF_900002375.2_GCA_900002375_protein.faa.gz	https://ftp.ncbi.nlm.nih.gov/genomes/all/GCF/900/002/375/GCF_900002375.2_GCA_900002375/GCF_900002375.2_GCA_900002375_genomic.fna.gz	NA	NA	NA
EP00822	Plasmodium_yoelii	https://ftp.ncbi.nlm.nih.gov/genomes/all/GCF/900/002/385/GCF_900002385.2_GCA_900002385/GCF_900002385.2_GCA_900002385_protein.faa.gz	https://ftp.ncbi.nlm.nih.gov/genomes/all/GCF/900/002/385/GCF_900002385.2_GCA_900002385/GCF_900002385.2_GCA_900002385_genomic.fna.gz	NA	NA	NA
EP00832	Piromyces_sp_E2	https://ftp.ncbi.nlm.nih.gov/genomes/all/GCA/002/157/105/GCA_002157105.1_PirspE2_v1.0/GCA_002157105.1_PirspE2_v1.0_protein.faa.gz	https://ftp.ncbi.nlm.nih.gov/genomes/all/GCA/002/157/105/GCA_002157105.1_PirspE2_v1.0/GCA_002157105.1_PirspE2_v1.0_genomic.fna.gz	NA	NA	NA
EP00833	Pecoramyces_ruminatium	https://genome.jgi.doe.gov/portal/Orpsp1_1/download/Orpsp1_1_GeneCatalog_proteins_20140826.aa.fasta.gz	NA	NA	NA	G
EP00834	Sanchytrium_tribonematis	https://figshare.com/articles/dataset/Proteomes_for_Amoeboradix_gromovi_and_Sanchytrium_tribonematis/16411629	NA	NA	NA	G
EP00835	Amoeboradix_gromovi	https://figshare.com/articles/dataset/Proteomes_for_Amoeboradix_gromovi_and_Sanchytrium_tribonematis/16411629	NA	NA	NA	S
EP00839	Anaeromyces_robustus	https://ftp.ncbi.nlm.nih.gov/genomes/all/GCA/002/104/895/GCA_002104895.1_Anaeromyces_sp._S4_v1.0/GCA_002104895.1_Anaeromyces_sp._S4_v1.0_protein.faa.gz	https://ftp.ncbi.nlm.nih.gov/genomes/all/GCA/002/104/895/GCA_002104895.1_Anaeromyces_sp._S4_v1.0/GCA_002104895.1_Anaeromyces_sp._S4_v1.0_genomic.fna.gz	NA	NA	NA
EP00840	Blyttiomyces_helicus	https://ftp.ncbi.nlm.nih.gov/genomes/all/GCA/003/614/705/GCA_003614705.1_Blyhe1/GCA_003614705.1_Blyhe1_protein.faa.gz	https://ftp.ncbi.nlm.nih.gov/genomes/all/GCA/003/614/705/GCA_003614705.1_Blyhe1/GCA_003614705.1_Blyhe1_genomic.fna.gz	NA	NA	NA
EP00841	Caulochytrium_protostelioides	https://ftp.ncbi.nlm.nih.gov/genomes/all/GCA/003/615/045/GCA_003615045.1_Caupr1/GCA_003615045.1_Caupr1_protein.faa.gz	https://ftp.ncbi.nlm.nih.gov/genomes/all/GCA/003/615/045/GCA_003615045.1_Caupr1/GCA_003615045.1_Caupr1_genomic.fna.gz	NA	NA	NA
EP00842	Homolaphlyctis_polyrhiza	https://genome.jgi.doe.gov/portal/Hompol1/download/Hompol1_GeneCatalog_proteins_20160803.aa.fasta.gz	NA	NA	NA	S
EP00843	Neocallimastix_californiae	https://ftp.ncbi.nlm.nih.gov/genomes/all/GCA/002/104/975/GCA_002104975.1_Neocallimastix_sp._G1_v1.0/GCA_002104975.1_Neocallimastix_sp._G1_v1.0_protein.faa.gz	https://ftp.ncbi.nlm.nih.gov/genomes/all/GCA/002/104/975/GCA_002104975.1_Neocallimastix_sp._G1_v1.0/GCA_002104975.1_Neocallimastix_sp._G1_v1.0_genomic.fna.gz	NA	NA	NA
EP00844	Piromyces_finnis	https://ftp.ncbi.nlm.nih.gov/genomes/all/GCA/002/104/945/GCA_002104945.1_Piromyces_sp._finnis_v3.0/GCA_002104945.1_Piromyces_sp._finnis_v3.0_protein.faa.gz	https://ftp.ncbi.nlm.nih.gov/genomes/all/GCA/002/104/945/GCA_002104945.1_Piromyces_sp._finnis_v3.0/GCA_002104945.1_Piromyces_sp._finnis_v3.0_genomic.fna.gz	NA	NA	NA
EP00845	Rhizoclosmatium_globosum	https://ftp.ncbi.nlm.nih.gov/genomes/all/GCA/002/104/985/GCA_002104985.1_Rhihy1/GCA_002104985.1_Rhihy1_protein.faa.gz	https://ftp.ncbi.nlm.nih.gov/genomes/all/GCA/002/104/985/GCA_002104985.1_Rhihy1/GCA_002104985.1_Rhihy1_genomic.fna.gz	NA	NA	NA
EP00846	Dimargaris_cristalligena	https://ftp.ncbi.nlm.nih.gov/genomes/all/GCA/003/614/675/GCA_003614675.1_DimcrSC1/GCA_003614675.1_DimcrSC1_protein.faa.gz	https://ftp.ncbi.nlm.nih.gov/genomes/all/GCA/003/614/675/GCA_003614675.1_DimcrSC1/GCA_003614675.1_DimcrSC1_genomic.fna.gz	NA	NA	NA
EP00847	Piptocephalis_cylindrospora	https://ftp.ncbi.nlm.nih.gov/genomes/all/GCA/003/614/145/GCA_003614145.1_Pipcy3_1/GCA_003614145.1_Pipcy3_1_protein.faa.gz	https://ftp.ncbi.nlm.nih.gov/genomes/all/GCA/003/614/145/GCA_003614145.1_Pipcy3_1/GCA_003614145.1_Pipcy3_1_genomic.fna.gz	NA	NA	NA
EP00848	Thamnocephalis_sphaerospora	https://ftp.ncbi.nlm.nih.gov/genomes/all/GCA/003/614/735/GCA_003614735.1_Thasp1/GCA_003614735.1_Thasp1_protein.faa.gz	https://ftp.ncbi.nlm.nih.gov/genomes/all/GCA/003/614/735/GCA_003614735.1_Thasp1/GCA_003614735.1_Thasp1_genomic.fna.gz	NA	NA	NA
EP00849	Syncephalis_pseudoplumigaleata	https://ftp.ncbi.nlm.nih.gov/genomes/all/GCA/003/614/755/GCA_003614755.1_Synps1/GCA_003614755.1_Synps1_protein.faa.gz	https://ftp.ncbi.nlm.nih.gov/genomes/all/GCA/003/614/755/GCA_003614755.1_Synps1/GCA_003614755.1_Synps1_genomic.fna.gz	NA	NA	NA
EP00850	Spirogloea_muscicola	https://figshare.com/articles/Genomes_of_subaerial_Zygnematophyceae_provide_insights_into_land_plant_evolution/9911876/1	NA	NA	NA	S
EP00851	Chlamydomonas_incerta	https://ftp.ncbi.nlm.nih.gov/genomes/all/GCA/016/834/605/GCA_016834605.1_ASM1683460v1/GCA_016834605.1_ASM1683460v1_protein.faa.gz	https://ftp.ncbi.nlm.nih.gov/genomes/all/GCA/016/834/605/GCA_016834605.1_ASM1683460v1/GCA_016834605.1_ASM1683460v1_genomic.fna.gz	NA	NA	NA
EP00852	Chlamydomonas_schloesseri	https://ftp.ncbi.nlm.nih.gov/genomes/all/GCA/016/834/595/GCA_016834595.1_ASM1683459v1/GCA_016834595.1_ASM1683459v1_protein.faa.gz	https://ftp.ncbi.nlm.nih.gov/genomes/all/GCA/016/834/595/GCA_016834595.1_ASM1683459v1/GCA_016834595.1_ASM1683459v1_genomic.fna.gz	NA	NA	NA
EP00853	Edaphochlamys_debaryana	https://ftp.ncbi.nlm.nih.gov/genomes/all/GCA/016/858/145/GCA_016858145.1_ASM1685814v1/GCA_016858145.1_ASM1685814v1_protein.faa.gz	https://ftp.ncbi.nlm.nih.gov/genomes/all/GCA/016/858/145/GCA_016858145.1_ASM1685814v1/GCA_016858145.1_ASM1685814v1_genomic.fna.gz	NA	NA	NA
EP00854	Cymbomonas_tetramitiformis	https://ftp.ncbi.nlm.nih.gov/genomes/all/GCA/001/247/695/GCA_001247695.1_ASM124769v1/GCA_001247695.1_ASM124769v1_genomic.fna.gz	https://ftp.ncbi.nlm.nih.gov/genomes/all/GCA/001/247/695/GCA_001247695.1_ASM124769v1/GCA_001247695.1_ASM124769v1_genomic.fna.gz	NA	NA	NA
EP00855	Neolecta_irregularis	https://ftp.ncbi.nlm.nih.gov/genomes/all/GCA/001/929/475/GCA_001929475.1_NeoIirr1.0/GCA_001929475.1_NeoIirr1.0_protein.faa.gz	https://ftp.ncbi.nlm.nih.gov/genomes/all/GCA/001/929/475/GCA_001929475.1_NeoIirr1.0/GCA_001929475.1_NeoIirr1.0_genomic.fna.gz	NA	NA	NA
EP00856	Taphrina_deformans	https://ftp.ncbi.nlm.nih.gov/genomes/all/GCA/000/312/925/GCA_000312925.2_ASM31292v2/GCA_000312925.2_ASM31292v2_protein.faa.gz	https://ftp.ncbi.nlm.nih.gov/genomes/all/GCA/000/312/925/GCA_000312925.2_ASM31292v2/GCA_000312925.2_ASM31292v2_genomic.fna.gz	NA	NA	NA
EP00857	Cystobasidium_minutum	https://genome.jgi.doe.gov/portal/Rhomi1/download/Rhomi1_GeneCatalog_proteins_20140320.aa.fasta.gz	NA	NA	NA	S
EP00858	Microbotryum_lychnidis-dioicae	https://ftp.ncbi.nlm.nih.gov/genomes/all/GCA/000/166/175/GCA_000166175.1_M_violaceum_V1/GCA_000166175.1_M_violaceum_V1_protein.faa.gz	https://ftp.ncbi.nlm.nih.gov/genomes/all/GCA/000/166/175/GCA_000166175.1_M_violaceum_V1/GCA_000166175.1_M_violaceum_V1_genomic.fna.gz	NA	NA	NA
EP00859	Malassezia_sympodialis	https://ftp.ncbi.nlm.nih.gov/genomes/all/GCF/000/349/305/GCF_000349305.1_ASM34930v2/GCF_000349305.1_ASM34930v2_protein.faa.gz	https://ftp.ncbi.nlm.nih.gov/genomes/all/GCF/000/349/305/GCF_000349305.1_ASM34930v2/GCF_000349305.1_ASM34930v2_genomic.fna.gz	NA	NA	NA
EP00860	Wallemia_mellicola	https://ftp.ncbi.nlm.nih.gov/genomes/all/GCF/000/263/375/GCF_000263375.1_Wallemia_sebi_v1.0/GCF_000263375.1_Wallemia_sebi_v1.0_protein.faa.gz	https://ftp.ncbi.nlm.nih.gov/genomes/all/GCF/000/263/375/GCF_000263375.1_Wallemia_sebi_v1.0/GCF_000263375.1_Wallemia_sebi_v1.0_genomic.fna.gz	NA	NA	NA
EP00861	Lobosporangium_transversale	https://ftp.ncbi.nlm.nih.gov/genomes/all/GCF/002/105/155/GCF_002105155.1_Lobtra1/GCF_002105155.1_Lobtra1_protein.faa.gz	https://ftp.ncbi.nlm.nih.gov/genomes/all/GCF/002/105/155/GCF_002105155.1_Lobtra1/GCF_002105155.1_Lobtra1_genomic.fna.gz	NA	NA	NA
EP00862	Endogone_sp_FLAS-F59071	https://ftp.ncbi.nlm.nih.gov/genomes/all/GCA/003/990/785/GCA_003990785.1_Endsp1/GCA_003990785.1_Endsp1_protein.faa.gz	https://ftp.ncbi.nlm.nih.gov/genomes/all/GCA/003/990/785/GCA_003990785.1_Endsp1/GCA_003990785.1_Endsp1_genomic.fna.gz	NA	NA	NA
EP00863	Basidiobolus_meristosporus	https://ftp.ncbi.nlm.nih.gov/genomes/all/GCA/002/104/905/GCA_002104905.1_Basme2finSC/GCA_002104905.1_Basme2finSC_protein.faa.gz	https://ftp.ncbi.nlm.nih.gov/genomes/all/GCA/002/104/905/GCA_002104905.1_Basme2finSC/GCA_002104905.1_Basme2finSC_genomic.fna.gz	NA	NA	NA
EP00864	Zancudomyces_culisetae	https://ftp.ncbi.nlm.nih.gov/genomes/all/GCA/001/969/505/GCA_001969505.1_ASM196950v1/GCA_001969505.1_ASM196950v1_protein.faa.gz	https://ftp.ncbi.nlm.nih.gov/genomes/all/GCA/001/969/505/GCA_001969505.1_ASM196950v1/GCA_001969505.1_ASM196950v1_genomic.fna.gz	NA	NA	NA
EP00865	Coemansia_reversa	https://ftp.ncbi.nlm.nih.gov/genomes/all/GCA/002/705/745/GCA_002705745.1_Coere1/GCA_002705745.1_Coere1_protein.faa.gz	https://ftp.ncbi.nlm.nih.gov/genomes/all/GCA/002/705/745/GCA_002705745.1_Coere1/GCA_002705745.1_Coere1_genomic.fna.gz	NA	NA	NA
EP00866	Antonospora_locustae	https://genome.jgi.doe.gov/portal/Antlo1/download/Antlo1_GeneCatalog_proteins_20130909.aa.fasta.gz	NA	NA	NA	S
EP00867	Encephalitozoon_hellem	https://ftp.ncbi.nlm.nih.gov/genomes/all/GCF/000/277/815/GCF_000277815.2_ASM27781v3/GCF_000277815.2_ASM27781v3_protein.faa.gz	https://ftp.ncbi.nlm.nih.gov/genomes/all/GCF/000/277/815/GCF_000277815.2_ASM27781v3/GCF_000277815.2_ASM27781v3_genomic.fna.gz	NA	NA	NA
EP00868	Enterocytozoon_bieneusi	https://ftp.ncbi.nlm.nih.gov/genomes/all/GCF/000/209/485/GCF_000209485.1_ASM20948v1/GCF_000209485.1_ASM20948v1_protein.faa.gz	https://ftp.ncbi.nlm.nih.gov/genomes/all/GCF/000/209/485/GCF_000209485.1_ASM20948v1/GCF_000209485.1_ASM20948v1_genomic.fna.gz	NA	NA	NA
EP00869	Nematocida_parisii	https://ftp.ncbi.nlm.nih.gov/genomes/all/GCF/000/250/985/GCF_000250985.1_Nema_parisii_ERTm1_V3/GCF_000250985.1_Nema_parisii_ERTm1_V3_protein.faa.gz	https://ftp.ncbi.nlm.nih.gov/genomes/all/GCF/000/250/985/GCF_000250985.1_Nema_parisii_ERTm1_V3/GCF_000250985.1_Nema_parisii_ERTm1_V3_genomic.fna.gz	NA	NA	NA
EP00870	Mitosporidium_daphniae	https://ftp.ncbi.nlm.nih.gov/genomes/all/GCF/000/760/515/GCF_000760515.2_UGP1.1/GCF_000760515.2_UGP1.1_protein.faa.gz	https://ftp.ncbi.nlm.nih.gov/genomes/all/GCF/000/760/515/GCF_000760515.2_UGP1.1/GCF_000760515.2_UGP1.1_genomic.fna.gz	NA	NA	NA
EP00871	Galdieria_phlegrea	https://genome.jgi.doe.gov/portal/Galph1/download/Galph1_GeneCatalog_proteins_20200805.aa.fasta.gz	NA	NA	NA	M
EP00872	Gracilariopsis_chorda	https://ftp.ncbi.nlm.nih.gov/genomes/all/GCA/003/194/525/GCA_003194525.1_GraCho1.0/GCA_003194525.1_GraCho1.0_protein.faa.gz	https://ftp.ncbi.nlm.nih.gov/genomes/all/GCA/003/194/525/GCA_003194525.1_GraCho1.0/GCA_003194525.1_GraCho1.0_genomic.fna.gz	NA	NA	NA
EP00873	Tetraselmis_striata	https://genome.jgi.doe.gov/portal/Tetstr1/download/Tetstr1_GeneCatalog_proteins_20200807.aa.fasta.gz	NA	NA	NA	S
EP00874	Dunaliella_salina	https://ftp.ncbi.nlm.nih.gov/genomes/all/GCA/002/284/615/GCA_002284615.2_Dunsal1_v._2/GCA_002284615.2_Dunsal1_v._2_protein.faa.gz	https://ftp.ncbi.nlm.nih.gov/genomes/all/GCA/002/284/615/GCA_002284615.2_Dunsal1_v._2/GCA_002284615.2_Dunsal1_v._2_genomic.fna.gz	NA	NA	NA
EP00875	Gonium_pectorale	https://ftp.ncbi.nlm.nih.gov/genomes/all/GCA/001/584/585/GCA_001584585.1_ASM158458v1/GCA_001584585.1_ASM158458v1_protein.faa.gz	https://ftp.ncbi.nlm.nih.gov/genomes/all/GCA/001/584/585/GCA_001584585.1_ASM158458v1/GCA_001584585.1_ASM158458v1_genomic.fna.gz	NA	NA	NA
EP00876	Tetrabaena_socialis	https://ftp.ncbi.nlm.nih.gov/genomes/all/GCA/002/891/735/GCA_002891735.1_TetSoc1/GCA_002891735.1_TetSoc1_protein.faa.gz	https://ftp.ncbi.nlm.nih.gov/genomes/all/GCA/002/891/735/GCA_002891735.1_TetSoc1/GCA_002891735.1_TetSoc1_genomic.fna.gz	NA	NA	NA
EP00877	Chromochloris_zofingiensis	https://genome.jgi.doe.gov/portal/Chrzof1/download/Chrzof1_GeneCatalog_proteins_20190731.aa.fasta.gz	NA	NA	NA	M
EP00880	Monoraphidium_neglectum	https://ftp.ncbi.nlm.nih.gov/genomes/all/GCF/000/611/645/GCF_000611645.1_mono_v1/GCF_000611645.1_mono_v1_protein.faa.gz	https://ftp.ncbi.nlm.nih.gov/genomes/all/GCF/000/611/645/GCF_000611645.1_mono_v1/GCF_000611645.1_mono_v1_genomic.fna.gz	NA	NA	NA
EP00881	Raphidocelis_subcapitata	https://ftp.ncbi.nlm.nih.gov/genomes/all/GCA/003/203/535/GCA_003203535.1_Rsub_1.0/GCA_003203535.1_Rsub_1.0_protein.faa.gz	https://ftp.ncbi.nlm.nih.gov/genomes/all/GCA/003/203/535/GCA_003203535.1_Rsub_1.0/GCA_003203535.1_Rsub_1.0_genomic.fna.gz	NA	NA	NA
EP00883	Tetradesmus_obliquus	https://genome.jgi.doe.gov/portal/Sobl393_1/download/Sobl393_1_GeneCatalog_proteins_20200120.aa.fasta.gz	NA	NA	NA	G
EP00884	Botryococcus_braunii	https://genome.jgi.doe.gov/portal/Botrbrau1/download/Botrbrau1_GeneCatalog_proteins_20200805.aa.fasta.gz	NA	NA	NA	S
EP00885	Auxenochlorella_protothecoides	https://ftp.ncbi.nlm.nih.gov/genomes/all/GCA/003/709/365/GCA_003709365.1_ASM370936v1/GCA_003709365.1_ASM370936v1_protein.faa.gz	https://ftp.ncbi.nlm.nih.gov/genomes/all/GCA/003/709/365/GCA_003709365.1_ASM370936v1/GCA_003709365.1_ASM370936v1_genomic.fna.gz	NA	NA	NA
EP00886	Chlorella_sorokiniana	https://ftp.ncbi.nlm.nih.gov/genomes/all/GCA/002/245/835/GCA_002245835.2_Chlorella_sorokiniana_2.0/GCA_002245835.2_Chlorella_sorokiniana_2.0_protein.faa.gz	https://ftp.ncbi.nlm.nih.gov/genomes/all/GCA/002/245/835/GCA_002245835.2_Chlorella_sorokiniana_2.0/GCA_002245835.2_Chlorella_sorokiniana_2.0_genomic.fna.gz	NA	NA	NA
EP00887	Chlorella_sp_A99	https://marinegenomics.oist.jp/chlorellaA99/download/Ch_genome_seq_final.mod01.fasta.aa.gz	NA	NA	NA	S
EP00888	Micractinium_conductrix	https://ftp.ncbi.nlm.nih.gov/genomes/all/GCA/002/245/815/GCA_002245815.2_ASM224581v2/GCA_002245815.2_ASM224581v2_protein.faa.gz	https://ftp.ncbi.nlm.nih.gov/genomes/all/GCA/002/245/815/GCA_002245815.2_ASM224581v2/GCA_002245815.2_ASM224581v2_genomic.fna.gz	NA	NA	NA
EP00889	Picochlorum_renovo	https://genome.jgi.doe.gov/portal/Picre1/download/Picre1_GeneCatalog_proteins_20200805.aa.fasta.gz	NA	NA	NA	M
EP00890	Picochlorum_soloecismus	https://genome.jgi.doe.gov/portal/Picsp_1/download/Picsp_1_GeneCatalog_proteins_20170909.aa.fasta.gz	NA	NA	NA	S
EP00891	Asterochloris_glomerata	https://genome.jgi.doe.gov/portal/Astpho2/download/Astpho2_GeneCatalog_proteins_20111209.aa.fasta.gz	NA	NA	NA	G
EP00892	Ulva_mutabilis	https://genome.jgi.doe.gov/portal/Ulvmu1/download/Ulvmu1_GeneCatalog_proteins_20200803.aa.fasta.gz	NA	NA	NA	G
EP00893	Bathycoccus_prasinos	https://ftp.ncbi.nlm.nih.gov/genomes/all/GCF/002/220/235/GCF_002220235.1_ASM222023v1/GCF_002220235.1_ASM222023v1_protein.faa.gz	https://ftp.ncbi.nlm.nih.gov/genomes/all/GCF/002/220/235/GCF_002220235.1_ASM222023v1/GCF_002220235.1_ASM222023v1_genomic.fna.gz	NA	NA	NA
EP00894	Picocystis_sp_ML	https://genome.jgi.doe.gov/portal/Pico_ML_1/download/Pico_ML_1_GeneCatalog_proteins_20200807.aa.fasta.gz	NA	NA	NA	S
EP00895	Klebsormidium_nitens	https://ftp.ncbi.nlm.nih.gov/genomes/all/GCA/000/708/835/GCA_000708835.1_ASM70883v1/GCA_000708835.1_ASM70883v1_protein.faa.gz	https://ftp.ncbi.nlm.nih.gov/genomes/all/GCA/000/708/835/GCA_000708835.1_ASM70883v1/GCA_000708835.1_ASM70883v1_genomic.fna.gz	NA	NA	NA
EP00896	Chara_braunii	https://ftp.ncbi.nlm.nih.gov/genomes/all/GCA/003/427/395/GCA_003427395.1_Cbr_1.0/GCA_003427395.1_Cbr_1.0_protein.faa.gz	https://ftp.ncbi.nlm.nih.gov/genomes/all/GCA/003/427/395/GCA_003427395.1_Cbr_1.0/GCA_003427395.1_Cbr_1.0_genomic.fna.gz	NA	NA	NA
EP00897	Mesotaenium_endlicherianum	https://genome.jgi.doe.gov/portal/Mesen1/download/Mesen1_GeneCatalog_proteins_20200803.aa.fasta.gz	NA	NA	NA	S
EP00898	Chlorokybus_atmophyticus	https://genome.jgi.doe.gov/portal/Chlat1/download/Chlat1_GeneCatalog_proteins_20200803.aa.fasta.gz	NA	NA	NA	G
EP00899	Mesostigma_viride	https://genome.jgi.doe.gov/portal/Mesvir1/download/Mesvir1_GeneCatalog_proteins_20200803.aa.fasta.gz	NA	NA	NA	M
EP00900	Chrysochromulina_parva	https://genome.jgi.doe.gov/portal/Chrpa1/download/Chrpa1_GeneCatalog_proteins_20200805.aa.fasta.gz	NA	NA	NA	S
EP00901	Cardiosporidium_cionae	https://www.ncbi.nlm.nih.gov/protein/?term=txid476202%5BOrganism%3Anoexp%5D+AND+PRJNA664590%5BBioProject%5D	NA	NA	NA	G
EP00902	Fistulifera_solaris	https://ftp.ncbi.nlm.nih.gov/genomes/all/GCA/002/217/885/GCA_002217885.1_Fsol_1.0/GCA_002217885.1_Fsol_1.0_protein.faa.gz	https://ftp.ncbi.nlm.nih.gov/genomes/all/GCA/002/217/885/GCA_002217885.1_Fsol_1.0/GCA_002217885.1_Fsol_1.0_genomic.fna.gz	NA	NA	NA
EP00903	Cladosiphon_okamuranus	https://marinegenomics.oist.jp/okinawa_mozuku_s_v2/download/okinawa_mozuku_S_ver2_protein_seq.zip	NA	NA	NA	S
EP00904	Undaria_pinnatifida	https://genome.jgi.doe.gov/portal/Undpi1/download/Undpi1_GeneCatalog_proteins_20200805.aa.fasta.gz	NA	NA	NA	S
EP00905	Microchloropsis_salina	https://ftp.ncbi.nlm.nih.gov/genomes/all/GCA/004/565/275/GCA_004565275.1_ASM456527v1/GCA_004565275.1_ASM456527v1_protein.faa.gz	https://ftp.ncbi.nlm.nih.gov/genomes/all/GCA/004/565/275/GCA_004565275.1_ASM456527v1/GCA_004565275.1_ASM456527v1_genomic.fna.gz	NA	NA	NA
EP00911	Craspedida_sp_UC1	https://figshare.com/articles/dataset/Supplementary_material_of_L_pez-Escardo_et_al_2019_submitted_to_Philosophical_transactions_of_the_Royal_Society_B/7819571	NA	NA	NA	G
EP00912	Choanoflagellata_sp_UC4	https://figshare.com/articles/dataset/Supplementary_material_of_L_pez-Escardo_et_al_2019_submitted_to_Philosophical_transactions_of_the_Royal_Society_B/7819571	NA	NA	NA	G
EP00913	Durusdinium_trenchii	https://marinegenomics.oist.jp/symbd/download/102_symbd_genemodels_prot.fa.gz	NA	NA	NA	G
EP00924	Labyrinthula_sp_SR-Ha-C	https://doi.org/10.17632/cg2ys63ps2.1	NA	NA	NA	M
EP00925	Amoebophrya_sp_RCC4383	http://application.sb-roscoff.fr/blast/hapar/data/sequences/A25_scaffolds_nanopore.fasta.zip	NA	NA	NA	M
EP00926	Amoebophrya_sp_RCC4398	http://application.sb-roscoff.fr/blast/hapar/data/sequences/A120_scaffolds_nanopore.fasta.zip	NA	NA	NA	M
EP00934	Nitzschia_sp_Nitz4	https://genomevolution.org/coge/GenomeInfo.pl?gid=60130	NA	NA	NA	M
EP00935	MAST-01C_sp_MAST-1C-sp1	https://figshare.com/collections/Comparative_genomics_reveals_new_functional_insights_in_uncultured_MAST_species/5008046	NA	NA	NA	G
EP00936	MAST-01D_sp_MAST-1D-sp1	https://figshare.com/collections/Comparative_genomics_reveals_new_functional_insights_in_uncultured_MAST_species/5008046	NA	NA	NA	G
EP00937	MAST-01D_sp_MAST-1D-sp2	https://figshare.com/collections/Comparative_genomics_reveals_new_functional_insights_in_uncultured_MAST_species/5008046	NA	NA	NA	M
EP00938	MAST-03A_sp_MAST-3A-sp1	https://figshare.com/collections/Comparative_genomics_reveals_new_functional_insights_in_uncultured_MAST_species/5008046	NA	NA	NA	M
EP00939	MAST-03C_sp_MAST-3C-sp1	https://figshare.com/collections/Comparative_genomics_reveals_new_functional_insights_in_uncultured_MAST_species/5008046	NA	NA	NA	S
EP00940	MAST-03C_sp_MAST-3C-sp2	https://figshare.com/collections/Comparative_genomics_reveals_new_functional_insights_in_uncultured_MAST_species/5008046	NA	NA	NA	S
EP00941	MAST-03F_sp_MAST-3F-sp1	https://figshare.com/collections/Comparative_genomics_reveals_new_functional_insights_in_uncultured_MAST_species/5008046	NA	NA	NA	S
EP00942	MAST-04A_sp_MAST-4A-sp1	https://figshare.com/collections/Comparative_genomics_reveals_new_functional_insights_in_uncultured_MAST_species/5008046	NA	NA	NA	M
EP00943	MAST-04B_sp_MAST-4B-sp1	https://figshare.com/collections/Comparative_genomics_reveals_new_functional_insights_in_uncultured_MAST_species/5008046	NA	NA	NA	M
EP00944	MAST-04C_sp_MAST-4C-sp1	https://figshare.com/collections/Comparative_genomics_reveals_new_functional_insights_in_uncultured_MAST_species/5008046	NA	NA	NA	M
EP00945	MAST-04E_sp_MAST-4E-sp1	https://figshare.com/collections/Comparative_genomics_reveals_new_functional_insights_in_uncultured_MAST_species/5008046	NA	NA	NA	G
EP00946	MAST-07B_sp_MAST-7B-sp1	https://figshare.com/collections/Comparative_genomics_reveals_new_functional_insights_in_uncultured_MAST_species/5008046	NA	NA	NA	S
EP00947	MAST-08B_sp_MAST-8B-sp1	https://figshare.com/collections/Comparative_genomics_reveals_new_functional_insights_in_uncultured_MAST_species/5008046	NA	NA	NA	M
EP00948	MAST-09A_sp_MAST-9A-sp1	https://figshare.com/collections/Comparative_genomics_reveals_new_functional_insights_in_uncultured_MAST_species/5008046	NA	NA	NA	G
EP00949	MAST-11_sp_MAST-11-sp1	https://figshare.com/collections/Comparative_genomics_reveals_new_functional_insights_in_uncultured_MAST_species/5008046	NA	NA	NA	G
EP00951	Prasinocladus_malaysianus	https://doi.org/10.5061/dryad.7wm37pvnv	NA	NA	NA	M
EP00952	Eustigmatos_sp_NYUAD-ZCMA	https://doi.org/10.5061/dryad.7wm37pvnv	NA	NA	NA	G
EP00953	Heterococcus_sp_UTEX-ZZ885	https://doi.org/10.5061/dryad.7wm37pvnv	NA	NA	NA	M
EP00954	Amorphochlora_amoebiformis	https://doi.org/10.5061/dryad.7wm37pvnv	NA	NA	NA	S
EP00955	Chlamydomonas_euryale	https://doi.org/10.5061/dryad.7wm37pvnv	NA	NA	NA	G
EP00956	Cyclotella_meneghiniana	https://doi.org/10.5061/dryad.7wm37pvnv	NA	NA	NA	M
EP00957	Ditylum_brightwellii	https://doi.org/10.5061/dryad.7wm37pvnv	NA	NA	NA	M
EP00958	Prasinococcus_capsulatus	https://doi.org/10.5061/dryad.7wm37pvnv	NA	NA	NA	M
EP00959	Pyramimonas_sp_CCMP1952	https://doi.org/10.5061/dryad.7wm37pvnv	NA	NA	NA	G
EP00960	Hanusia_phi	https://doi.org/10.5061/dryad.7wm37pvnv	NA	NA	NA	S
EP00961	Rhodomonas_salina	https://doi.org/10.5061/dryad.7wm37pvnv	NA	NA	NA	M
EP00962	Isochrysis_galbana	https://doi.org/10.5061/dryad.7wm37pvnv	NA	NA	NA	M
EP00963	Diacronema_lutheri	https://doi.org/10.5061/dryad.7wm37pvnv	NA	NA	NA	S
EP00964	Phaeocystis_antarctica	https://doi.org/10.5061/dryad.7wm37pvnv	NA	NA	NA	S
EP00965	Chrysotila_dentata	https://doi.org/10.5061/dryad.7wm37pvnv	NA	NA	NA	S
EP00966	Prymnesium_polylepis	https://doi.org/10.5061/dryad.7wm37pvnv	NA	NA	NA	G
EP00967	Tisochrysis_lutea	https://doi.org/10.5061/dryad.7wm37pvnv	NA	NA	NA	S
EP00968	Pinguiococcus_pyrenoidosus	https://doi.org/10.5061/dryad.7wm37pvnv	NA	NA	NA	G
EP00969	Alexandrium_andersonii	https://doi.org/10.5061/dryad.7wm37pvnv	NA	NA	NA	M
EP00970	Alexandrium_tamarense	https://doi.org/10.5061/dryad.7wm37pvnv	NA	NA	NA	M
EP00971	Amphidinium_carterae	https://doi.org/10.5061/dryad.7wm37pvnv	NA	NA	NA	M
EP00972	Heterocapsa_arctica	https://doi.org/10.5061/dryad.7wm37pvnv	NA	NA	NA	M
EP00973	Karenia_brevis	https://doi.org/10.5061/dryad.7wm37pvnv	NA	NA	NA	G
EP00974	Lingulodinium_polyedra	https://doi.org/10.5061/dryad.7wm37pvnv	NA	NA	NA	G
EP00975	Prorocentrum_lima	https://doi.org/10.5061/dryad.7wm37pvnv	NA	NA	NA	M
EP00976	Prorocentrum_cordatum	https://doi.org/10.5061/dryad.7wm37pvnv	NA	NA	NA	M
EP00977	Amphora_coffeiformis	https://doi.org/10.5061/dryad.7wm37pvnv	NA	NA	NA	G
EP00978	Attheya_sp_CCMP212	https://doi.org/10.5061/dryad.7wm37pvnv	NA	NA	NA	M
EP00979	Chaetoceros_neogracilis	https://doi.org/10.5061/dryad.7wm37pvnv	NA	NA	NA	M
EP00980	Cylindrotheca_fusiformis	https://doi.org/10.5061/dryad.7wm37pvnv	NA	NA	NA	G
EP00981	Chlorochromonas_danica	https://doi.org/10.5061/dryad.7wm37pvnv	NA	NA	NA	M
EP00982	Pelagococcus_subviridis	https://doi.org/10.5061/dryad.7wm37pvnv	NA	NA	NA	S
EP00983	Pelagomonas_calceolata	https://doi.org/10.5061/dryad.7wm37pvnv	NA	NA	NA	M
EP00984	Skeletonema_dohrnii	https://doi.org/10.5061/dryad.7wm37pvnv	NA	NA	NA	G
EP00985	Skeletonema_marinoi	https://doi.org/10.5061/dryad.7wm37pvnv	NA	NA	NA	G
EP00986	Skeletonema_menzelii	https://doi.org/10.5061/dryad.7wm37pvnv	NA	NA	NA	S
EP00988	Cryptosporidium_hominis	https://ftp.ncbi.nlm.nih.gov/genomes/all/GCA/001/483/515/GCA_001483515.1_ASM148351v1/GCA_001483515.1_ASM148351v1_protein.faa.gz	https://ftp.ncbi.nlm.nih.gov/genomes/all/GCA/001/483/515/GCA_001483515.1_ASM148351v1/GCA_001483515.1_ASM148351v1_genomic.fna.gz	NA	NA	NA
EP00989	Cryptosporidium_parvum	https://ftp.ncbi.nlm.nih.gov/genomes/all/GCA/015/245/375/GCA_015245375.1_ASM1524537v1/GCA_015245375.1_ASM1524537v1_protein.faa.gz	https://ftp.ncbi.nlm.nih.gov/genomes/all/GCA/015/245/375/GCA_015245375.1_ASM1524537v1/GCA_015245375.1_ASM1524537v1_genomic.fna.gz	NA	NA	NA
EP01018	Ginkgo_biloba	ftp://parrot.genomics.cn/gigadb/pub/10.5524/100001_101000/100613/Ginkgo_biloba.HiC.protein.fasta	NA	NA	NA	G
EP01030	Chromulinospumella_sphaerica	https://ftp.ncbi.nlm.nih.gov/genomes/all/GCA/015/144/965/GCA_015144965.1_ASM1514496v1/GCA_015144965.1_ASM1514496v1_genomic.fna.gz	https://ftp.ncbi.nlm.nih.gov/genomes/all/GCA/015/144/965/GCA_015144965.1_ASM1514496v1/GCA_015144965.1_ASM1514496v1_genomic.fna.gz	NA	NA	NA
EP01031	Cornospumella_fuschlensis	https://ftp.ncbi.nlm.nih.gov/genomes/all/GCA/015/146/115/GCA_015146115.1_ASM1514611v1/GCA_015146115.1_ASM1514611v1_genomic.fna.gz	https://ftp.ncbi.nlm.nih.gov/genomes/all/GCA/015/146/115/GCA_015146115.1_ASM1514611v1/GCA_015146115.1_ASM1514611v1_genomic.fna.gz	NA	NA	NA
EP01032	Pedospumella_encystans	https://ftp.ncbi.nlm.nih.gov/genomes/all/GCA/015/143/685/GCA_015143685.1_ASM1514368v1/GCA_015143685.1_ASM1514368v1_genomic.fna.gz	https://ftp.ncbi.nlm.nih.gov/genomes/all/GCA/015/143/685/GCA_015143685.1_ASM1514368v1/GCA_015143685.1_ASM1514368v1_genomic.fna.gz	NA	NA	NA
EP01033	Poteriospumella_lacustris	https://ftp.ncbi.nlm.nih.gov/genomes/all/GCA/008/000/375/GCA_008000375.1_ASM800037v1/GCA_008000375.1_ASM800037v1_genomic.fna.gz	https://ftp.ncbi.nlm.nih.gov/genomes/all/GCA/008/000/375/GCA_008000375.1_ASM800037v1/GCA_008000375.1_ASM800037v1_genomic.fna.gz	NA	NA	NA
EP01034	Spumella_vulgaris	https://ftp.ncbi.nlm.nih.gov/genomes/all/GCA/015/148/565/GCA_015148565.1_ASM1514856v1/GCA_015148565.1_ASM1514856v1_genomic.fna.gz	https://ftp.ncbi.nlm.nih.gov/genomes/all/GCA/015/148/565/GCA_015148565.1_ASM1514856v1/GCA_015148565.1_ASM1514856v1_genomic.fna.gz	NA	NA	NA
EP01035	Chromulina_nebulosa	https://ftp.ncbi.nlm.nih.gov/genomes/all/GCA/015/148/605/GCA_015148605.1_ASM1514860v1/GCA_015148605.1_ASM1514860v1_genomic.fna.gz	https://ftp.ncbi.nlm.nih.gov/genomes/all/GCA/015/148/605/GCA_015148605.1_ASM1514860v1/GCA_015148605.1_ASM1514860v1_genomic.fna.gz	NA	NA	NA
EP01036	Dinobryon_divergens	https://ftp.ncbi.nlm.nih.gov/genomes/all/GCA/015/146/095/GCA_015146095.1_ASM1514609v1/GCA_015146095.1_ASM1514609v1_genomic.fna.gz	https://ftp.ncbi.nlm.nih.gov/genomes/all/GCA/015/146/095/GCA_015146095.1_ASM1514609v1/GCA_015146095.1_ASM1514609v1_genomic.fna.gz	NA	NA	NA
EP01037	Dinobryon_pediforme	https://ftp.ncbi.nlm.nih.gov/genomes/all/GCA/015/143/705/GCA_015143705.1_ASM1514370v1/GCA_015143705.1_ASM1514370v1_genomic.fna.gz	https://ftp.ncbi.nlm.nih.gov/genomes/all/GCA/015/143/705/GCA_015143705.1_ASM1514370v1/GCA_015143705.1_ASM1514370v1_genomic.fna.gz	NA	NA	NA
EP01038	Epipyxis_sp_PR26KG	https://ftp.ncbi.nlm.nih.gov/genomes/all/GCA/015/144/975/GCA_015144975.1_ASM1514497v1/GCA_015144975.1_ASM1514497v1_genomic.fna.gz	https://ftp.ncbi.nlm.nih.gov/genomes/all/GCA/015/144/975/GCA_015144975.1_ASM1514497v1/GCA_015144975.1_ASM1514497v1_genomic.fna.gz	NA	NA	NA
EP01039	Chlorochromonas_danica	https://ftp.ncbi.nlm.nih.gov/genomes/all/GCA/015/146/655/GCA_015146655.1_ASM1514665v1/GCA_015146655.1_ASM1514665v1_genomic.fna.gz	https://ftp.ncbi.nlm.nih.gov/genomes/all/GCA/015/146/655/GCA_015146655.1_ASM1514665v1/GCA_015146655.1_ASM1514665v1_genomic.fna.gz	NA	NA	NA
EP01040	Poterioochromonas_malhamensis	https://ftp.ncbi.nlm.nih.gov/genomes/all/GCA/015/145/745/GCA_015145745.1_ASM1514574v1/GCA_015145745.1_ASM1514574v1_genomic.fna.gz	https://ftp.ncbi.nlm.nih.gov/genomes/all/GCA/015/145/745/GCA_015145745.1_ASM1514574v1/GCA_015145745.1_ASM1514574v1_genomic.fna.gz	NA	NA	NA
EP01041	Mallomonas_annulata	https://ftp.ncbi.nlm.nih.gov/genomes/all/GCA/015/143/345/GCA_015143345.1_ASM1514334v1/GCA_015143345.1_ASM1514334v1_genomic.fna.gz	https://ftp.ncbi.nlm.nih.gov/genomes/all/GCA/015/143/345/GCA_015143345.1_ASM1514334v1/GCA_015143345.1_ASM1514334v1_genomic.fna.gz	NA	NA	NA
EP01042	Synura_sphagnicola	https://ftp.ncbi.nlm.nih.gov/genomes/all/GCA/015/143/735/GCA_015143735.1_ASM1514373v1/GCA_015143735.1_ASM1514373v1_genomic.fna.gz	https://ftp.ncbi.nlm.nih.gov/genomes/all/GCA/015/143/735/GCA_015143735.1_ASM1514373v1/GCA_015143735.1_ASM1514373v1_genomic.fna.gz	NA	NA	NA
EP01043	Picozoa_sp_COSAG02	https://doi.org/10.6084/m9.figshare.c.5388176.v1	NA	NA	NA	M
EP01044	Picomonas_judraskeda	https://doi.org/10.6084/m9.figshare.c.5388176.v1	NA	NA	NA	M
EP01045	Picozoa_sp_COSAG04	https://doi.org/10.6084/m9.figshare.c.5388176.v1	NA	NA	NA	M
EP01046	Picozoa_sp_COSAG06	https://doi.org/10.6084/m9.figshare.c.5388176.v1	NA	NA	NA	G
EP01047	Picozoa_sp_COSAG01	https://doi.org/10.6084/m9.figshare.c.5388176.v1	NA	NA	NA	M
EP01048	Picozoa_sp_COSAG05	https://doi.org/10.6084/m9.figshare.c.5388176.v1	NA	NA	NA	G
EP01049	Picozoa_sp_SAG25	https://doi.org/10.6084/m9.figshare.c.5388176.v1	NA	NA	NA	S
EP01050	Picozoa_sp_SAG11	https://doi.org/10.6084/m9.figshare.c.5388176.v1	NA	NA	NA	G
EP01051	Picozoa_sp_SAG22	https://doi.org/10.6084/m9.figshare.c.5388176.v1	NA	NA	NA	G
EP01052	Picozoa_sp_SAG31	https://doi.org/10.6084/m9.figshare.c.5388176.v1	NA	NA	NA	G
EP01079	Euglenida_sp_SAG-EU17-18	https://figshare.com/s/de8998f2e6cc71de6702	NA	NA	NA	M
EP01080	Neovahlkampfia_damariscottae	https://ftp.ncbi.nlm.nih.gov/genomes/all/GCA/016/618/085/GCA_016618085.1_ASM1661808v1/GCA_016618085.1_ASM1661808v1_genomic.fna.gz	https://ftp.ncbi.nlm.nih.gov/genomes/all/GCA/016/618/085/GCA_016618085.1_ASM1661808v1/GCA_016618085.1_ASM1661808v1_genomic.fna.gz	NA	NA	NA
EP01082	Thalassiosira_pseudonana	https://doi.org/10.5683/SP2/ZDZQFE	NA	NA	NA	G
EP01109	Acytostelium_subglobosum	https://ftp.ncbi.nlm.nih.gov/genomes/all/GCF/000/787/575/GCF_000787575.1_Asub_2.0/GCF_000787575.1_Asub_2.0_protein.faa.gz	https://ftp.ncbi.nlm.nih.gov/genomes/all/GCF/000/787/575/GCF_000787575.1_Asub_2.0/GCF_000787575.1_Asub_2.0_genomic.fna.gz	NA	NA	NA
EP01132	Coremiostelium_polycephalum	https://ftp.ncbi.nlm.nih.gov/genomes/all/GCA/900/092/265/GCA_900092265.1_ASM90009226v1/GCA_900092265.1_ASM90009226v1_genomic.fna.gz	https://ftp.ncbi.nlm.nih.gov/genomes/all/GCA/900/092/265/GCA_900092265.1_ASM90009226v1/GCA_900092265.1_ASM90009226v1_genomic.fna.gz	NA	NA	NA
EP01133	Synstelium_polycarpum	https://ftp.ncbi.nlm.nih.gov/genomes/all/GCA/900/092/255/GCA_900092255.1_ASM90009225v1/GCA_900092255.1_ASM90009225v1_genomic.fna.gz	https://ftp.ncbi.nlm.nih.gov/genomes/all/GCA/900/092/255/GCA_900092255.1_ASM90009225v1/GCA_900092255.1_ASM90009225v1_genomic.fna.gz	NA	NA	NA
EP01134	Creolimax_fragrantissima	http://dx.doi.org/10.6084/m9.figshare.1403592	NA	NA	NA	S
EP01135	Chromosphaera_perkinsii	https://figshare.com/articles/dataset/Genome_-_Chromosphaera_perkinsii/5426494	NA	NA	NA	G
EP01146	Carpediemonas_membranifera	https://ftp.ncbi.nlm.nih.gov/genomes/all/GCA/019/828/565/GCA_019828565.1_ASM1982856v1/GCA_019828565.1_ASM1982856v1_protein.faa.gz	https://ftp.ncbi.nlm.nih.gov/genomes/all/GCA/019/828/565/GCA_019828565.1_ASM1982856v1/GCA_019828565.1_ASM1982856v1_genomic.fna.gz	NA	NA	NA
EP01147	Barroeca_monosierra	https://doi.org/10.6084/m9.figshare.14474214	NA	NA	NA	G
